\contentsline {chapter}{\numberline {1}Namespace Index}{1}
\contentsline {section}{\numberline {1.1}Packages}{1}
\contentsline {chapter}{\numberline {2}Hierarchical Index}{3}
\contentsline {section}{\numberline {2.1}Class Hierarchy}{3}
\contentsline {chapter}{\numberline {3}Class Index}{5}
\contentsline {section}{\numberline {3.1}Class List}{5}
\contentsline {chapter}{\numberline {4}Namespace Documentation}{7}
\contentsline {section}{\numberline {4.1}Assets Namespace Reference}{7}
\contentsline {section}{\numberline {4.2}Assets.\discretionary {\unhbox \voidb@x \hbox {\relax \fontsize {7}{8}\selectfont $\leftarrow \joinrel \rhook $}}{}{}Custom\discretionary {\unhbox \voidb@x \hbox {\relax \fontsize {7}{8}\selectfont $\leftarrow \joinrel \rhook $}}{}{}Assets Namespace Reference}{7}
\contentsline {section}{\numberline {4.3}Assets.\discretionary {\unhbox \voidb@x \hbox {\relax \fontsize {7}{8}\selectfont $\leftarrow \joinrel \rhook $}}{}{}Custom\discretionary {\unhbox \voidb@x \hbox {\relax \fontsize {7}{8}\selectfont $\leftarrow \joinrel \rhook $}}{}{}Assets.\discretionary {\unhbox \voidb@x \hbox {\relax \fontsize {7}{8}\selectfont $\leftarrow \joinrel \rhook $}}{}{}Scripts Namespace Reference}{7}
\contentsline {section}{\numberline {4.4}Assets.\discretionary {\unhbox \voidb@x \hbox {\relax \fontsize {7}{8}\selectfont $\leftarrow \joinrel \rhook $}}{}{}Custom\discretionary {\unhbox \voidb@x \hbox {\relax \fontsize {7}{8}\selectfont $\leftarrow \joinrel \rhook $}}{}{}Assets.\discretionary {\unhbox \voidb@x \hbox {\relax \fontsize {7}{8}\selectfont $\leftarrow \joinrel \rhook $}}{}{}Scripts.\discretionary {\unhbox \voidb@x \hbox {\relax \fontsize {7}{8}\selectfont $\leftarrow \joinrel \rhook $}}{}{}Manual Namespace Reference}{7}
\contentsline {section}{\numberline {4.5}Assets.\discretionary {\unhbox \voidb@x \hbox {\relax \fontsize {7}{8}\selectfont $\leftarrow \joinrel \rhook $}}{}{}Custom\discretionary {\unhbox \voidb@x \hbox {\relax \fontsize {7}{8}\selectfont $\leftarrow \joinrel \rhook $}}{}{}Assets.\discretionary {\unhbox \voidb@x \hbox {\relax \fontsize {7}{8}\selectfont $\leftarrow \joinrel \rhook $}}{}{}Scripts.\discretionary {\unhbox \voidb@x \hbox {\relax \fontsize {7}{8}\selectfont $\leftarrow \joinrel \rhook $}}{}{}Parsers Namespace Reference}{7}
\contentsline {chapter}{\numberline {5}Class Documentation}{9}
\contentsline {section}{\numberline {5.1}Aldolase Class Reference}{9}
\contentsline {subsection}{\numberline {5.1.1}Detailed Description}{9}
\contentsline {subsection}{\numberline {5.1.2}Member Function Documentation}{9}
\contentsline {subsubsection}{\numberline {5.1.2.1}add\discretionary {\unhbox \voidb@x \hbox {\relax \fontsize {7}{8}\selectfont $\leftarrow \joinrel \rhook $}}{}{}To\discretionary {\unhbox \voidb@x \hbox {\relax \fontsize {7}{8}\selectfont $\leftarrow \joinrel \rhook $}}{}{}Game\discretionary {\unhbox \voidb@x \hbox {\relax \fontsize {7}{8}\selectfont $\leftarrow \joinrel \rhook $}}{}{}Object()}{9}
\contentsline {section}{\numberline {5.2}Alkaline\discretionary {\unhbox \voidb@x \hbox {\relax \fontsize {7}{8}\selectfont $\leftarrow \joinrel \rhook $}}{}{}Phosphatase Class Reference}{10}
\contentsline {subsection}{\numberline {5.2.1}Detailed Description}{10}
\contentsline {subsection}{\numberline {5.2.2}Member Function Documentation}{10}
\contentsline {subsubsection}{\numberline {5.2.2.1}add\discretionary {\unhbox \voidb@x \hbox {\relax \fontsize {7}{8}\selectfont $\leftarrow \joinrel \rhook $}}{}{}To\discretionary {\unhbox \voidb@x \hbox {\relax \fontsize {7}{8}\selectfont $\leftarrow \joinrel \rhook $}}{}{}Game\discretionary {\unhbox \voidb@x \hbox {\relax \fontsize {7}{8}\selectfont $\leftarrow \joinrel \rhook $}}{}{}Object()}{10}
\contentsline {section}{\numberline {5.3}Bottle Class Reference}{11}
\contentsline {subsection}{\numberline {5.3.1}Detailed Description}{11}
\contentsline {subsection}{\numberline {5.3.2}Member Function Documentation}{11}
\contentsline {subsubsection}{\numberline {5.3.2.1}add\discretionary {\unhbox \voidb@x \hbox {\relax \fontsize {7}{8}\selectfont $\leftarrow \joinrel \rhook $}}{}{}To\discretionary {\unhbox \voidb@x \hbox {\relax \fontsize {7}{8}\selectfont $\leftarrow \joinrel \rhook $}}{}{}Game\discretionary {\unhbox \voidb@x \hbox {\relax \fontsize {7}{8}\selectfont $\leftarrow \joinrel \rhook $}}{}{}Object()}{11}
\contentsline {section}{\numberline {5.4}Bovine\discretionary {\unhbox \voidb@x \hbox {\relax \fontsize {7}{8}\selectfont $\leftarrow \joinrel \rhook $}}{}{}Serum\discretionary {\unhbox \voidb@x \hbox {\relax \fontsize {7}{8}\selectfont $\leftarrow \joinrel \rhook $}}{}{}Albumin Class Reference}{12}
\contentsline {subsection}{\numberline {5.4.1}Detailed Description}{13}
\contentsline {subsection}{\numberline {5.4.2}Member Function Documentation}{13}
\contentsline {subsubsection}{\numberline {5.4.2.1}add\discretionary {\unhbox \voidb@x \hbox {\relax \fontsize {7}{8}\selectfont $\leftarrow \joinrel \rhook $}}{}{}To\discretionary {\unhbox \voidb@x \hbox {\relax \fontsize {7}{8}\selectfont $\leftarrow \joinrel \rhook $}}{}{}Game\discretionary {\unhbox \voidb@x \hbox {\relax \fontsize {7}{8}\selectfont $\leftarrow \joinrel \rhook $}}{}{}Object()}{13}
\contentsline {section}{\numberline {5.5}Container Class Reference}{13}
\contentsline {subsection}{\numberline {5.5.1}Detailed Description}{14}
\contentsline {subsection}{\numberline {5.5.2}Member Function Documentation}{14}
\contentsline {subsubsection}{\numberline {5.5.2.1}change\discretionary {\unhbox \voidb@x \hbox {\relax \fontsize {7}{8}\selectfont $\leftarrow \joinrel \rhook $}}{}{}Filler\discretionary {\unhbox \voidb@x \hbox {\relax \fontsize {7}{8}\selectfont $\leftarrow \joinrel \rhook $}}{}{}Color()}{14}
\contentsline {subsubsection}{\numberline {5.5.2.2}deduct()}{15}
\contentsline {subsubsection}{\numberline {5.5.2.3}get\discretionary {\unhbox \voidb@x \hbox {\relax \fontsize {7}{8}\selectfont $\leftarrow \joinrel \rhook $}}{}{}Current()}{15}
\contentsline {subsubsection}{\numberline {5.5.2.4}get\discretionary {\unhbox \voidb@x \hbox {\relax \fontsize {7}{8}\selectfont $\leftarrow \joinrel \rhook $}}{}{}Materials()}{15}
\contentsline {subsubsection}{\numberline {5.5.2.5}get\discretionary {\unhbox \voidb@x \hbox {\relax \fontsize {7}{8}\selectfont $\leftarrow \joinrel \rhook $}}{}{}Max()}{16}
\contentsline {subsubsection}{\numberline {5.5.2.6}get\discretionary {\unhbox \voidb@x \hbox {\relax \fontsize {7}{8}\selectfont $\leftarrow \joinrel \rhook $}}{}{}Measurement()}{16}
\contentsline {subsubsection}{\numberline {5.5.2.7}get\discretionary {\unhbox \voidb@x \hbox {\relax \fontsize {7}{8}\selectfont $\leftarrow \joinrel \rhook $}}{}{}Min()}{16}
\contentsline {subsubsection}{\numberline {5.5.2.8}init\discretionary {\unhbox \voidb@x \hbox {\relax \fontsize {7}{8}\selectfont $\leftarrow \joinrel \rhook $}}{}{}Filler\discretionary {\unhbox \voidb@x \hbox {\relax \fontsize {7}{8}\selectfont $\leftarrow \joinrel \rhook $}}{}{}Color()}{16}
\contentsline {subsubsection}{\numberline {5.5.2.9}init\discretionary {\unhbox \voidb@x \hbox {\relax \fontsize {7}{8}\selectfont $\leftarrow \joinrel \rhook $}}{}{}Filler\discretionary {\unhbox \voidb@x \hbox {\relax \fontsize {7}{8}\selectfont $\leftarrow \joinrel \rhook $}}{}{}Sprite()}{17}
\contentsline {subsubsection}{\numberline {5.5.2.10}pour()}{17}
\contentsline {subsubsection}{\numberline {5.5.2.11}set\discretionary {\unhbox \voidb@x \hbox {\relax \fontsize {7}{8}\selectfont $\leftarrow \joinrel \rhook $}}{}{}Max()}{18}
\contentsline {subsubsection}{\numberline {5.5.2.12}set\discretionary {\unhbox \voidb@x \hbox {\relax \fontsize {7}{8}\selectfont $\leftarrow \joinrel \rhook $}}{}{}Measurement()}{18}
\contentsline {subsubsection}{\numberline {5.5.2.13}set\discretionary {\unhbox \voidb@x \hbox {\relax \fontsize {7}{8}\selectfont $\leftarrow \joinrel \rhook $}}{}{}Min()}{19}
\contentsline {subsubsection}{\numberline {5.5.2.14}show\discretionary {\unhbox \voidb@x \hbox {\relax \fontsize {7}{8}\selectfont $\leftarrow \joinrel \rhook $}}{}{}Pour()\hspace {0.1cm}{\relax \fontsize {8}{9.5}\selectfont \abovedisplayskip 6\p@ plus2\p@ minus4\p@ \abovedisplayshortskip \z@ plus\p@ \belowdisplayshortskip 3\p@ plus\p@ minus2\p@ \def \leftmargin \leftmargini \parsep 4\p@ plus2\p@ minus\p@ \topsep 8\p@ plus2\p@ minus4\p@ \itemsep 4\p@ plus2\p@ minus\p@ {\leftmargin \leftmargini \topsep 3\p@ plus\p@ minus\p@ \parsep 2\p@ plus\p@ minus\p@ \itemsep \parsep }\belowdisplayskip \abovedisplayskip \ttfamily [1/2]}}{19}
\contentsline {subsubsection}{\numberline {5.5.2.15}show\discretionary {\unhbox \voidb@x \hbox {\relax \fontsize {7}{8}\selectfont $\leftarrow \joinrel \rhook $}}{}{}Pour()\hspace {0.1cm}{\relax \fontsize {8}{9.5}\selectfont \abovedisplayskip 6\p@ plus2\p@ minus4\p@ \abovedisplayshortskip \z@ plus\p@ \belowdisplayshortskip 3\p@ plus\p@ minus2\p@ \def \leftmargin \leftmargini \parsep 4\p@ plus2\p@ minus\p@ \topsep 8\p@ plus2\p@ minus4\p@ \itemsep 4\p@ plus2\p@ minus\p@ {\leftmargin \leftmargini \topsep 3\p@ plus\p@ minus\p@ \parsep 2\p@ plus\p@ minus\p@ \itemsep \parsep }\belowdisplayskip \abovedisplayskip \ttfamily [2/2]}}{20}
\contentsline {section}{\numberline {5.6}Cuvette Class Reference}{20}
\contentsline {subsection}{\numberline {5.6.1}Detailed Description}{20}
\contentsline {subsection}{\numberline {5.6.2}Member Function Documentation}{21}
\contentsline {subsubsection}{\numberline {5.6.2.1}add\discretionary {\unhbox \voidb@x \hbox {\relax \fontsize {7}{8}\selectfont $\leftarrow \joinrel \rhook $}}{}{}To\discretionary {\unhbox \voidb@x \hbox {\relax \fontsize {7}{8}\selectfont $\leftarrow \joinrel \rhook $}}{}{}Game\discretionary {\unhbox \voidb@x \hbox {\relax \fontsize {7}{8}\selectfont $\leftarrow \joinrel \rhook $}}{}{}Object()}{21}
\contentsline {section}{\numberline {5.7}Draggable Class Reference}{22}
\contentsline {subsection}{\numberline {5.7.1}Detailed Description}{22}
\contentsline {section}{\numberline {5.8}Draggable\discretionary {\unhbox \voidb@x \hbox {\relax \fontsize {7}{8}\selectfont $\leftarrow \joinrel \rhook $}}{}{}Container Class Reference}{22}
\contentsline {subsection}{\numberline {5.8.1}Detailed Description}{23}
\contentsline {section}{\numberline {5.9}Draggable\discretionary {\unhbox \voidb@x \hbox {\relax \fontsize {7}{8}\selectfont $\leftarrow \joinrel \rhook $}}{}{}Material Class Reference}{23}
\contentsline {subsection}{\numberline {5.9.1}Detailed Description}{23}
\contentsline {subsection}{\numberline {5.9.2}Member Function Documentation}{23}
\contentsline {subsubsection}{\numberline {5.9.2.1}On\discretionary {\unhbox \voidb@x \hbox {\relax \fontsize {7}{8}\selectfont $\leftarrow \joinrel \rhook $}}{}{}Drag()}{23}
\contentsline {subsubsection}{\numberline {5.9.2.2}On\discretionary {\unhbox \voidb@x \hbox {\relax \fontsize {7}{8}\selectfont $\leftarrow \joinrel \rhook $}}{}{}Pointer\discretionary {\unhbox \voidb@x \hbox {\relax \fontsize {7}{8}\selectfont $\leftarrow \joinrel \rhook $}}{}{}Down()}{24}
\contentsline {subsubsection}{\numberline {5.9.2.3}On\discretionary {\unhbox \voidb@x \hbox {\relax \fontsize {7}{8}\selectfont $\leftarrow \joinrel \rhook $}}{}{}Pointer\discretionary {\unhbox \voidb@x \hbox {\relax \fontsize {7}{8}\selectfont $\leftarrow \joinrel \rhook $}}{}{}Up()}{24}
\contentsline {section}{\numberline {5.10}Drag\discretionary {\unhbox \voidb@x \hbox {\relax \fontsize {7}{8}\selectfont $\leftarrow \joinrel \rhook $}}{}{}Panel Class Reference}{25}
\contentsline {subsection}{\numberline {5.10.1}Detailed Description}{25}
\contentsline {subsection}{\numberline {5.10.2}Member Function Documentation}{25}
\contentsline {subsubsection}{\numberline {5.10.2.1}On\discretionary {\unhbox \voidb@x \hbox {\relax \fontsize {7}{8}\selectfont $\leftarrow \joinrel \rhook $}}{}{}Drag()}{25}
\contentsline {subsubsection}{\numberline {5.10.2.2}On\discretionary {\unhbox \voidb@x \hbox {\relax \fontsize {7}{8}\selectfont $\leftarrow \joinrel \rhook $}}{}{}Pointer\discretionary {\unhbox \voidb@x \hbox {\relax \fontsize {7}{8}\selectfont $\leftarrow \joinrel \rhook $}}{}{}Down()}{26}
\contentsline {section}{\numberline {5.11}Dynamic\discretionary {\unhbox \voidb@x \hbox {\relax \fontsize {7}{8}\selectfont $\leftarrow \joinrel \rhook $}}{}{}Viewport Class Reference}{26}
\contentsline {subsection}{\numberline {5.11.1}Detailed Description}{26}
\contentsline {section}{\numberline {5.12}Equipment Class Reference}{27}
\contentsline {subsection}{\numberline {5.12.1}Detailed Description}{28}
\contentsline {subsection}{\numberline {5.12.2}Member Function Documentation}{28}
\contentsline {subsubsection}{\numberline {5.12.2.1}add\discretionary {\unhbox \voidb@x \hbox {\relax \fontsize {7}{8}\selectfont $\leftarrow \joinrel \rhook $}}{}{}To\discretionary {\unhbox \voidb@x \hbox {\relax \fontsize {7}{8}\selectfont $\leftarrow \joinrel \rhook $}}{}{}Game\discretionary {\unhbox \voidb@x \hbox {\relax \fontsize {7}{8}\selectfont $\leftarrow \joinrel \rhook $}}{}{}Object()}{28}
\contentsline {subsubsection}{\numberline {5.12.2.2}get\discretionary {\unhbox \voidb@x \hbox {\relax \fontsize {7}{8}\selectfont $\leftarrow \joinrel \rhook $}}{}{}Config\discretionary {\unhbox \voidb@x \hbox {\relax \fontsize {7}{8}\selectfont $\leftarrow \joinrel \rhook $}}{}{}Panel()}{28}
\contentsline {subsubsection}{\numberline {5.12.2.3}get\discretionary {\unhbox \voidb@x \hbox {\relax \fontsize {7}{8}\selectfont $\leftarrow \joinrel \rhook $}}{}{}Equipment\discretionary {\unhbox \voidb@x \hbox {\relax \fontsize {7}{8}\selectfont $\leftarrow \joinrel \rhook $}}{}{}Name()}{29}
\contentsline {subsubsection}{\numberline {5.12.2.4}get\discretionary {\unhbox \voidb@x \hbox {\relax \fontsize {7}{8}\selectfont $\leftarrow \joinrel \rhook $}}{}{}Equipment\discretionary {\unhbox \voidb@x \hbox {\relax \fontsize {7}{8}\selectfont $\leftarrow \joinrel \rhook $}}{}{}Sprite()}{29}
\contentsline {subsubsection}{\numberline {5.12.2.5}get\discretionary {\unhbox \voidb@x \hbox {\relax \fontsize {7}{8}\selectfont $\leftarrow \joinrel \rhook $}}{}{}Sprite\discretionary {\unhbox \voidb@x \hbox {\relax \fontsize {7}{8}\selectfont $\leftarrow \joinrel \rhook $}}{}{}Scale()}{29}
\contentsline {subsubsection}{\numberline {5.12.2.6}is\discretionary {\unhbox \voidb@x \hbox {\relax \fontsize {7}{8}\selectfont $\leftarrow \joinrel \rhook $}}{}{}Collider()}{30}
\contentsline {subsubsection}{\numberline {5.12.2.7}Is\discretionary {\unhbox \voidb@x \hbox {\relax \fontsize {7}{8}\selectfont $\leftarrow \joinrel \rhook $}}{}{}Container()\hspace {0.1cm}{\relax \fontsize {8}{9.5}\selectfont \abovedisplayskip 6\p@ plus2\p@ minus4\p@ \abovedisplayshortskip \z@ plus\p@ \belowdisplayshortskip 3\p@ plus\p@ minus2\p@ \def \leftmargin \leftmargini \parsep 4\p@ plus2\p@ minus\p@ \topsep 8\p@ plus2\p@ minus4\p@ \itemsep 4\p@ plus2\p@ minus\p@ {\leftmargin \leftmargini \topsep 3\p@ plus\p@ minus\p@ \parsep 2\p@ plus\p@ minus\p@ \itemsep \parsep }\belowdisplayskip \abovedisplayskip \ttfamily [1/2]}}{30}
\contentsline {subsubsection}{\numberline {5.12.2.8}Is\discretionary {\unhbox \voidb@x \hbox {\relax \fontsize {7}{8}\selectfont $\leftarrow \joinrel \rhook $}}{}{}Container()\hspace {0.1cm}{\relax \fontsize {8}{9.5}\selectfont \abovedisplayskip 6\p@ plus2\p@ minus4\p@ \abovedisplayshortskip \z@ plus\p@ \belowdisplayshortskip 3\p@ plus\p@ minus2\p@ \def \leftmargin \leftmargini \parsep 4\p@ plus2\p@ minus\p@ \topsep 8\p@ plus2\p@ minus4\p@ \itemsep 4\p@ plus2\p@ minus\p@ {\leftmargin \leftmargini \topsep 3\p@ plus\p@ minus\p@ \parsep 2\p@ plus\p@ minus\p@ \itemsep \parsep }\belowdisplayskip \abovedisplayskip \ttfamily [2/2]}}{30}
\contentsline {subsubsection}{\numberline {5.12.2.9}is\discretionary {\unhbox \voidb@x \hbox {\relax \fontsize {7}{8}\selectfont $\leftarrow \joinrel \rhook $}}{}{}Visible()}{31}
\contentsline {subsubsection}{\numberline {5.12.2.10}Set\discretionary {\unhbox \voidb@x \hbox {\relax \fontsize {7}{8}\selectfont $\leftarrow \joinrel \rhook $}}{}{}Container\discretionary {\unhbox \voidb@x \hbox {\relax \fontsize {7}{8}\selectfont $\leftarrow \joinrel \rhook $}}{}{}Max()}{31}
\contentsline {subsubsection}{\numberline {5.12.2.11}Set\discretionary {\unhbox \voidb@x \hbox {\relax \fontsize {7}{8}\selectfont $\leftarrow \joinrel \rhook $}}{}{}Container\discretionary {\unhbox \voidb@x \hbox {\relax \fontsize {7}{8}\selectfont $\leftarrow \joinrel \rhook $}}{}{}Measurement()}{31}
\contentsline {subsubsection}{\numberline {5.12.2.12}Set\discretionary {\unhbox \voidb@x \hbox {\relax \fontsize {7}{8}\selectfont $\leftarrow \joinrel \rhook $}}{}{}Container\discretionary {\unhbox \voidb@x \hbox {\relax \fontsize {7}{8}\selectfont $\leftarrow \joinrel \rhook $}}{}{}Min()}{32}
\contentsline {subsubsection}{\numberline {5.12.2.13}Set\discretionary {\unhbox \voidb@x \hbox {\relax \fontsize {7}{8}\selectfont $\leftarrow \joinrel \rhook $}}{}{}Sprite\discretionary {\unhbox \voidb@x \hbox {\relax \fontsize {7}{8}\selectfont $\leftarrow \joinrel \rhook $}}{}{}Scale()}{32}
\contentsline {section}{\numberline {5.13}Equipment\discretionary {\unhbox \voidb@x \hbox {\relax \fontsize {7}{8}\selectfont $\leftarrow \joinrel \rhook $}}{}{}Menu Class Reference}{32}
\contentsline {subsection}{\numberline {5.13.1}Detailed Description}{33}
\contentsline {section}{\numberline {5.14}Equipment\discretionary {\unhbox \voidb@x \hbox {\relax \fontsize {7}{8}\selectfont $\leftarrow \joinrel \rhook $}}{}{}Panel\discretionary {\unhbox \voidb@x \hbox {\relax \fontsize {7}{8}\selectfont $\leftarrow \joinrel \rhook $}}{}{}Content Class Reference}{33}
\contentsline {subsection}{\numberline {5.14.1}Detailed Description}{33}
\contentsline {subsection}{\numberline {5.14.2}Member Function Documentation}{33}
\contentsline {subsubsection}{\numberline {5.14.2.1}Configure\discretionary {\unhbox \voidb@x \hbox {\relax \fontsize {7}{8}\selectfont $\leftarrow \joinrel \rhook $}}{}{}Panel()}{33}
\contentsline {section}{\numberline {5.15}Equipment\discretionary {\unhbox \voidb@x \hbox {\relax \fontsize {7}{8}\selectfont $\leftarrow \joinrel \rhook $}}{}{}Panel\discretionary {\unhbox \voidb@x \hbox {\relax \fontsize {7}{8}\selectfont $\leftarrow \joinrel \rhook $}}{}{}Toggle Class Reference}{34}
\contentsline {subsection}{\numberline {5.15.1}Detailed Description}{34}
\contentsline {subsection}{\numberline {5.15.2}Member Function Documentation}{34}
\contentsline {subsubsection}{\numberline {5.15.2.1}is\discretionary {\unhbox \voidb@x \hbox {\relax \fontsize {7}{8}\selectfont $\leftarrow \joinrel \rhook $}}{}{}Visible()}{34}
\contentsline {section}{\numberline {5.16}Assets.\discretionary {\unhbox \voidb@x \hbox {\relax \fontsize {7}{8}\selectfont $\leftarrow \joinrel \rhook $}}{}{}Custom\discretionary {\unhbox \voidb@x \hbox {\relax \fontsize {7}{8}\selectfont $\leftarrow \joinrel \rhook $}}{}{}Assets.\discretionary {\unhbox \voidb@x \hbox {\relax \fontsize {7}{8}\selectfont $\leftarrow \joinrel \rhook $}}{}{}Scripts.\discretionary {\unhbox \voidb@x \hbox {\relax \fontsize {7}{8}\selectfont $\leftarrow \joinrel \rhook $}}{}{}Manual.\discretionary {\unhbox \voidb@x \hbox {\relax \fontsize {7}{8}\selectfont $\leftarrow \joinrel \rhook $}}{}{}Image\discretionary {\unhbox \voidb@x \hbox {\relax \fontsize {7}{8}\selectfont $\leftarrow \joinrel \rhook $}}{}{}Element Class Reference}{35}
\contentsline {subsection}{\numberline {5.16.1}Detailed Description}{35}
\contentsline {subsection}{\numberline {5.16.2}Constructor \& Destructor Documentation}{35}
\contentsline {subsubsection}{\numberline {5.16.2.1}Image\discretionary {\unhbox \voidb@x \hbox {\relax \fontsize {7}{8}\selectfont $\leftarrow \joinrel \rhook $}}{}{}Element()}{35}
\contentsline {subsection}{\numberline {5.16.3}Member Function Documentation}{36}
\contentsline {subsubsection}{\numberline {5.16.3.1}get\discretionary {\unhbox \voidb@x \hbox {\relax \fontsize {7}{8}\selectfont $\leftarrow \joinrel \rhook $}}{}{}Image\discretionary {\unhbox \voidb@x \hbox {\relax \fontsize {7}{8}\selectfont $\leftarrow \joinrel \rhook $}}{}{}Path()}{36}
\contentsline {subsubsection}{\numberline {5.16.3.2}is\discretionary {\unhbox \voidb@x \hbox {\relax \fontsize {7}{8}\selectfont $\leftarrow \joinrel \rhook $}}{}{}Center()}{36}
\contentsline {subsubsection}{\numberline {5.16.3.3}is\discretionary {\unhbox \voidb@x \hbox {\relax \fontsize {7}{8}\selectfont $\leftarrow \joinrel \rhook $}}{}{}Left()}{37}
\contentsline {subsubsection}{\numberline {5.16.3.4}is\discretionary {\unhbox \voidb@x \hbox {\relax \fontsize {7}{8}\selectfont $\leftarrow \joinrel \rhook $}}{}{}Right()}{37}
\contentsline {section}{\numberline {5.17}Lab1\discretionary {\unhbox \voidb@x \hbox {\relax \fontsize {7}{8}\selectfont $\leftarrow \joinrel \rhook $}}{}{}Reactor Class Reference}{37}
\contentsline {subsection}{\numberline {5.17.1}Detailed Description}{38}
\contentsline {section}{\numberline {5.18}Lab\discretionary {\unhbox \voidb@x \hbox {\relax \fontsize {7}{8}\selectfont $\leftarrow \joinrel \rhook $}}{}{}Manager Class Reference}{38}
\contentsline {subsection}{\numberline {5.18.1}Detailed Description}{38}
\contentsline {subsection}{\numberline {5.18.2}Member Function Documentation}{39}
\contentsline {subsubsection}{\numberline {5.18.2.1}get\discretionary {\unhbox \voidb@x \hbox {\relax \fontsize {7}{8}\selectfont $\leftarrow \joinrel \rhook $}}{}{}Equipment\discretionary {\unhbox \voidb@x \hbox {\relax \fontsize {7}{8}\selectfont $\leftarrow \joinrel \rhook $}}{}{}List()}{39}
\contentsline {subsubsection}{\numberline {5.18.2.2}get\discretionary {\unhbox \voidb@x \hbox {\relax \fontsize {7}{8}\selectfont $\leftarrow \joinrel \rhook $}}{}{}Lab\discretionary {\unhbox \voidb@x \hbox {\relax \fontsize {7}{8}\selectfont $\leftarrow \joinrel \rhook $}}{}{}Manager\discretionary {\unhbox \voidb@x \hbox {\relax \fontsize {7}{8}\selectfont $\leftarrow \joinrel \rhook $}}{}{}G\discretionary {\unhbox \voidb@x \hbox {\relax \fontsize {7}{8}\selectfont $\leftarrow \joinrel \rhook $}}{}{}O()}{39}
\contentsline {subsubsection}{\numberline {5.18.2.3}get\discretionary {\unhbox \voidb@x \hbox {\relax \fontsize {7}{8}\selectfont $\leftarrow \joinrel \rhook $}}{}{}Manaul\discretionary {\unhbox \voidb@x \hbox {\relax \fontsize {7}{8}\selectfont $\leftarrow \joinrel \rhook $}}{}{}Elements()}{39}
\contentsline {subsubsection}{\numberline {5.18.2.4}get\discretionary {\unhbox \voidb@x \hbox {\relax \fontsize {7}{8}\selectfont $\leftarrow \joinrel \rhook $}}{}{}Material\discretionary {\unhbox \voidb@x \hbox {\relax \fontsize {7}{8}\selectfont $\leftarrow \joinrel \rhook $}}{}{}List()}{40}
\contentsline {section}{\numberline {5.19}Assets.\discretionary {\unhbox \voidb@x \hbox {\relax \fontsize {7}{8}\selectfont $\leftarrow \joinrel \rhook $}}{}{}Custom\discretionary {\unhbox \voidb@x \hbox {\relax \fontsize {7}{8}\selectfont $\leftarrow \joinrel \rhook $}}{}{}Assets.\discretionary {\unhbox \voidb@x \hbox {\relax \fontsize {7}{8}\selectfont $\leftarrow \joinrel \rhook $}}{}{}Scripts.\discretionary {\unhbox \voidb@x \hbox {\relax \fontsize {7}{8}\selectfont $\leftarrow \joinrel \rhook $}}{}{}Manual.\discretionary {\unhbox \voidb@x \hbox {\relax \fontsize {7}{8}\selectfont $\leftarrow \joinrel \rhook $}}{}{}List\discretionary {\unhbox \voidb@x \hbox {\relax \fontsize {7}{8}\selectfont $\leftarrow \joinrel \rhook $}}{}{}Element Class Reference}{40}
\contentsline {subsection}{\numberline {5.19.1}Detailed Description}{40}
\contentsline {subsection}{\numberline {5.19.2}Constructor \& Destructor Documentation}{40}
\contentsline {subsubsection}{\numberline {5.19.2.1}List\discretionary {\unhbox \voidb@x \hbox {\relax \fontsize {7}{8}\selectfont $\leftarrow \joinrel \rhook $}}{}{}Element()}{40}
\contentsline {subsection}{\numberline {5.19.3}Member Function Documentation}{41}
\contentsline {subsubsection}{\numberline {5.19.3.1}get\discretionary {\unhbox \voidb@x \hbox {\relax \fontsize {7}{8}\selectfont $\leftarrow \joinrel \rhook $}}{}{}Children()}{41}
\contentsline {subsubsection}{\numberline {5.19.3.2}get\discretionary {\unhbox \voidb@x \hbox {\relax \fontsize {7}{8}\selectfont $\leftarrow \joinrel \rhook $}}{}{}List\discretionary {\unhbox \voidb@x \hbox {\relax \fontsize {7}{8}\selectfont $\leftarrow \joinrel \rhook $}}{}{}Size()}{41}
\contentsline {subsubsection}{\numberline {5.19.3.3}is\discretionary {\unhbox \voidb@x \hbox {\relax \fontsize {7}{8}\selectfont $\leftarrow \joinrel \rhook $}}{}{}Alpha()}{42}
\contentsline {subsubsection}{\numberline {5.19.3.4}is\discretionary {\unhbox \voidb@x \hbox {\relax \fontsize {7}{8}\selectfont $\leftarrow \joinrel \rhook $}}{}{}Bullet()}{42}
\contentsline {subsubsection}{\numberline {5.19.3.5}is\discretionary {\unhbox \voidb@x \hbox {\relax \fontsize {7}{8}\selectfont $\leftarrow \joinrel \rhook $}}{}{}Number()}{42}
\contentsline {section}{\numberline {5.20}Assets.\discretionary {\unhbox \voidb@x \hbox {\relax \fontsize {7}{8}\selectfont $\leftarrow \joinrel \rhook $}}{}{}Custom\discretionary {\unhbox \voidb@x \hbox {\relax \fontsize {7}{8}\selectfont $\leftarrow \joinrel \rhook $}}{}{}Assets.\discretionary {\unhbox \voidb@x \hbox {\relax \fontsize {7}{8}\selectfont $\leftarrow \joinrel \rhook $}}{}{}Scripts.\discretionary {\unhbox \voidb@x \hbox {\relax \fontsize {7}{8}\selectfont $\leftarrow \joinrel \rhook $}}{}{}Manual.\discretionary {\unhbox \voidb@x \hbox {\relax \fontsize {7}{8}\selectfont $\leftarrow \joinrel \rhook $}}{}{}Manual\discretionary {\unhbox \voidb@x \hbox {\relax \fontsize {7}{8}\selectfont $\leftarrow \joinrel \rhook $}}{}{}Element Class Reference}{43}
\contentsline {subsection}{\numberline {5.20.1}Detailed Description}{43}
\contentsline {subsection}{\numberline {5.20.2}Member Function Documentation}{43}
\contentsline {subsubsection}{\numberline {5.20.2.1}get\discretionary {\unhbox \voidb@x \hbox {\relax \fontsize {7}{8}\selectfont $\leftarrow \joinrel \rhook $}}{}{}Tag()}{43}
\contentsline {subsubsection}{\numberline {5.20.2.2}identify\discretionary {\unhbox \voidb@x \hbox {\relax \fontsize {7}{8}\selectfont $\leftarrow \joinrel \rhook $}}{}{}Image\discretionary {\unhbox \voidb@x \hbox {\relax \fontsize {7}{8}\selectfont $\leftarrow \joinrel \rhook $}}{}{}Align()}{44}
\contentsline {subsubsection}{\numberline {5.20.2.3}identify\discretionary {\unhbox \voidb@x \hbox {\relax \fontsize {7}{8}\selectfont $\leftarrow \joinrel \rhook $}}{}{}List\discretionary {\unhbox \voidb@x \hbox {\relax \fontsize {7}{8}\selectfont $\leftarrow \joinrel \rhook $}}{}{}Style()}{44}
\contentsline {subsubsection}{\numberline {5.20.2.4}identify\discretionary {\unhbox \voidb@x \hbox {\relax \fontsize {7}{8}\selectfont $\leftarrow \joinrel \rhook $}}{}{}Tag()}{45}
\contentsline {subsubsection}{\numberline {5.20.2.5}identify\discretionary {\unhbox \voidb@x \hbox {\relax \fontsize {7}{8}\selectfont $\leftarrow \joinrel \rhook $}}{}{}Text\discretionary {\unhbox \voidb@x \hbox {\relax \fontsize {7}{8}\selectfont $\leftarrow \joinrel \rhook $}}{}{}Style()}{45}
\contentsline {section}{\numberline {5.21}Assets.\discretionary {\unhbox \voidb@x \hbox {\relax \fontsize {7}{8}\selectfont $\leftarrow \joinrel \rhook $}}{}{}Custom\discretionary {\unhbox \voidb@x \hbox {\relax \fontsize {7}{8}\selectfont $\leftarrow \joinrel \rhook $}}{}{}Assets.\discretionary {\unhbox \voidb@x \hbox {\relax \fontsize {7}{8}\selectfont $\leftarrow \joinrel \rhook $}}{}{}Scripts.\discretionary {\unhbox \voidb@x \hbox {\relax \fontsize {7}{8}\selectfont $\leftarrow \joinrel \rhook $}}{}{}Parsers.\discretionary {\unhbox \voidb@x \hbox {\relax \fontsize {7}{8}\selectfont $\leftarrow \joinrel \rhook $}}{}{}Manual\discretionary {\unhbox \voidb@x \hbox {\relax \fontsize {7}{8}\selectfont $\leftarrow \joinrel \rhook $}}{}{}Parser Class Reference}{46}
\contentsline {subsection}{\numberline {5.21.1}Detailed Description}{46}
\contentsline {subsection}{\numberline {5.21.2}Member Function Documentation}{46}
\contentsline {subsubsection}{\numberline {5.21.2.1}get\discretionary {\unhbox \voidb@x \hbox {\relax \fontsize {7}{8}\selectfont $\leftarrow \joinrel \rhook $}}{}{}Manual()}{46}
\contentsline {subsubsection}{\numberline {5.21.2.2}parameterized\discretionary {\unhbox \voidb@x \hbox {\relax \fontsize {7}{8}\selectfont $\leftarrow \joinrel \rhook $}}{}{}Xpath()}{47}
\contentsline {section}{\numberline {5.22}Material Class Reference}{48}
\contentsline {subsection}{\numberline {5.22.1}Detailed Description}{49}
\contentsline {subsection}{\numberline {5.22.2}Member Function Documentation}{49}
\contentsline {subsubsection}{\numberline {5.22.2.1}add\discretionary {\unhbox \voidb@x \hbox {\relax \fontsize {7}{8}\selectfont $\leftarrow \joinrel \rhook $}}{}{}To\discretionary {\unhbox \voidb@x \hbox {\relax \fontsize {7}{8}\selectfont $\leftarrow \joinrel \rhook $}}{}{}Game\discretionary {\unhbox \voidb@x \hbox {\relax \fontsize {7}{8}\selectfont $\leftarrow \joinrel \rhook $}}{}{}Object()}{49}
\contentsline {subsubsection}{\numberline {5.22.2.2}get\discretionary {\unhbox \voidb@x \hbox {\relax \fontsize {7}{8}\selectfont $\leftarrow \joinrel \rhook $}}{}{}Config\discretionary {\unhbox \voidb@x \hbox {\relax \fontsize {7}{8}\selectfont $\leftarrow \joinrel \rhook $}}{}{}Panel()}{49}
\contentsline {subsubsection}{\numberline {5.22.2.3}get\discretionary {\unhbox \voidb@x \hbox {\relax \fontsize {7}{8}\selectfont $\leftarrow \joinrel \rhook $}}{}{}Material\discretionary {\unhbox \voidb@x \hbox {\relax \fontsize {7}{8}\selectfont $\leftarrow \joinrel \rhook $}}{}{}Name()}{50}
\contentsline {subsubsection}{\numberline {5.22.2.4}get\discretionary {\unhbox \voidb@x \hbox {\relax \fontsize {7}{8}\selectfont $\leftarrow \joinrel \rhook $}}{}{}Material\discretionary {\unhbox \voidb@x \hbox {\relax \fontsize {7}{8}\selectfont $\leftarrow \joinrel \rhook $}}{}{}Sprite()}{50}
\contentsline {subsubsection}{\numberline {5.22.2.5}get\discretionary {\unhbox \voidb@x \hbox {\relax \fontsize {7}{8}\selectfont $\leftarrow \joinrel \rhook $}}{}{}Sprite\discretionary {\unhbox \voidb@x \hbox {\relax \fontsize {7}{8}\selectfont $\leftarrow \joinrel \rhook $}}{}{}Scale()}{51}
\contentsline {section}{\numberline {5.23}Material\discretionary {\unhbox \voidb@x \hbox {\relax \fontsize {7}{8}\selectfont $\leftarrow \joinrel \rhook $}}{}{}Panel\discretionary {\unhbox \voidb@x \hbox {\relax \fontsize {7}{8}\selectfont $\leftarrow \joinrel \rhook $}}{}{}Content Class Reference}{51}
\contentsline {subsection}{\numberline {5.23.1}Detailed Description}{51}
\contentsline {subsection}{\numberline {5.23.2}Member Function Documentation}{51}
\contentsline {subsubsection}{\numberline {5.23.2.1}Configure\discretionary {\unhbox \voidb@x \hbox {\relax \fontsize {7}{8}\selectfont $\leftarrow \joinrel \rhook $}}{}{}Panel()}{51}
\contentsline {section}{\numberline {5.24}Material\discretionary {\unhbox \voidb@x \hbox {\relax \fontsize {7}{8}\selectfont $\leftarrow \joinrel \rhook $}}{}{}Panel\discretionary {\unhbox \voidb@x \hbox {\relax \fontsize {7}{8}\selectfont $\leftarrow \joinrel \rhook $}}{}{}Toggle Class Reference}{52}
\contentsline {subsection}{\numberline {5.24.1}Detailed Description}{52}
\contentsline {subsection}{\numberline {5.24.2}Member Function Documentation}{53}
\contentsline {subsubsection}{\numberline {5.24.2.1}is\discretionary {\unhbox \voidb@x \hbox {\relax \fontsize {7}{8}\selectfont $\leftarrow \joinrel \rhook $}}{}{}Visible()}{53}
\contentsline {section}{\numberline {5.25}Pair$<$ T1, T2 $>$ Class Template Reference}{53}
\contentsline {subsection}{\numberline {5.25.1}Detailed Description}{53}
\contentsline {section}{\numberline {5.26}P\discretionary {\unhbox \voidb@x \hbox {\relax \fontsize {7}{8}\selectfont $\leftarrow \joinrel \rhook $}}{}{}Nitrophenol Class Reference}{53}
\contentsline {subsection}{\numberline {5.26.1}Detailed Description}{54}
\contentsline {subsection}{\numberline {5.26.2}Member Function Documentation}{54}
\contentsline {subsubsection}{\numberline {5.26.2.1}add\discretionary {\unhbox \voidb@x \hbox {\relax \fontsize {7}{8}\selectfont $\leftarrow \joinrel \rhook $}}{}{}To\discretionary {\unhbox \voidb@x \hbox {\relax \fontsize {7}{8}\selectfont $\leftarrow \joinrel \rhook $}}{}{}Game\discretionary {\unhbox \voidb@x \hbox {\relax \fontsize {7}{8}\selectfont $\leftarrow \joinrel \rhook $}}{}{}Object()}{54}
\contentsline {section}{\numberline {5.27}P\discretionary {\unhbox \voidb@x \hbox {\relax \fontsize {7}{8}\selectfont $\leftarrow \joinrel \rhook $}}{}{}Nitrophenyl\discretionary {\unhbox \voidb@x \hbox {\relax \fontsize {7}{8}\selectfont $\leftarrow \joinrel \rhook $}}{}{}Phosphate Class Reference}{55}
\contentsline {subsection}{\numberline {5.27.1}Detailed Description}{55}
\contentsline {subsection}{\numberline {5.27.2}Member Function Documentation}{55}
\contentsline {subsubsection}{\numberline {5.27.2.1}add\discretionary {\unhbox \voidb@x \hbox {\relax \fontsize {7}{8}\selectfont $\leftarrow \joinrel \rhook $}}{}{}To\discretionary {\unhbox \voidb@x \hbox {\relax \fontsize {7}{8}\selectfont $\leftarrow \joinrel \rhook $}}{}{}Game\discretionary {\unhbox \voidb@x \hbox {\relax \fontsize {7}{8}\selectfont $\leftarrow \joinrel \rhook $}}{}{}Object()}{55}
\contentsline {section}{\numberline {5.28}Reactor Class Reference}{56}
\contentsline {subsection}{\numberline {5.28.1}Detailed Description}{56}
\contentsline {section}{\numberline {5.29}Scroll\discretionary {\unhbox \voidb@x \hbox {\relax \fontsize {7}{8}\selectfont $\leftarrow \joinrel \rhook $}}{}{}Handle\discretionary {\unhbox \voidb@x \hbox {\relax \fontsize {7}{8}\selectfont $\leftarrow \joinrel \rhook $}}{}{}Hover Class Reference}{56}
\contentsline {subsection}{\numberline {5.29.1}Detailed Description}{57}
\contentsline {subsection}{\numberline {5.29.2}Member Function Documentation}{57}
\contentsline {subsubsection}{\numberline {5.29.2.1}On\discretionary {\unhbox \voidb@x \hbox {\relax \fontsize {7}{8}\selectfont $\leftarrow \joinrel \rhook $}}{}{}Pointer\discretionary {\unhbox \voidb@x \hbox {\relax \fontsize {7}{8}\selectfont $\leftarrow \joinrel \rhook $}}{}{}Enter()}{57}
\contentsline {subsubsection}{\numberline {5.29.2.2}On\discretionary {\unhbox \voidb@x \hbox {\relax \fontsize {7}{8}\selectfont $\leftarrow \joinrel \rhook $}}{}{}Pointer\discretionary {\unhbox \voidb@x \hbox {\relax \fontsize {7}{8}\selectfont $\leftarrow \joinrel \rhook $}}{}{}Exit()}{57}
\contentsline {section}{\numberline {5.30}Spectrophotometer Class Reference}{58}
\contentsline {subsection}{\numberline {5.30.1}Detailed Description}{58}
\contentsline {subsection}{\numberline {5.30.2}Member Function Documentation}{58}
\contentsline {subsubsection}{\numberline {5.30.2.1}add\discretionary {\unhbox \voidb@x \hbox {\relax \fontsize {7}{8}\selectfont $\leftarrow \joinrel \rhook $}}{}{}To\discretionary {\unhbox \voidb@x \hbox {\relax \fontsize {7}{8}\selectfont $\leftarrow \joinrel \rhook $}}{}{}Game\discretionary {\unhbox \voidb@x \hbox {\relax \fontsize {7}{8}\selectfont $\leftarrow \joinrel \rhook $}}{}{}Object()}{58}
\contentsline {subsubsection}{\numberline {5.30.2.2}assign\discretionary {\unhbox \voidb@x \hbox {\relax \fontsize {7}{8}\selectfont $\leftarrow \joinrel \rhook $}}{}{}Cuvette()}{59}
\contentsline {subsubsection}{\numberline {5.30.2.3}is\discretionary {\unhbox \voidb@x \hbox {\relax \fontsize {7}{8}\selectfont $\leftarrow \joinrel \rhook $}}{}{}Empty()}{59}
\contentsline {section}{\numberline {5.31}Assets.\discretionary {\unhbox \voidb@x \hbox {\relax \fontsize {7}{8}\selectfont $\leftarrow \joinrel \rhook $}}{}{}Custom\discretionary {\unhbox \voidb@x \hbox {\relax \fontsize {7}{8}\selectfont $\leftarrow \joinrel \rhook $}}{}{}Assets.\discretionary {\unhbox \voidb@x \hbox {\relax \fontsize {7}{8}\selectfont $\leftarrow \joinrel \rhook $}}{}{}Scripts.\discretionary {\unhbox \voidb@x \hbox {\relax \fontsize {7}{8}\selectfont $\leftarrow \joinrel \rhook $}}{}{}Manual.\discretionary {\unhbox \voidb@x \hbox {\relax \fontsize {7}{8}\selectfont $\leftarrow \joinrel \rhook $}}{}{}Text\discretionary {\unhbox \voidb@x \hbox {\relax \fontsize {7}{8}\selectfont $\leftarrow \joinrel \rhook $}}{}{}Element Class Reference}{60}
\contentsline {subsection}{\numberline {5.31.1}Detailed Description}{60}
\contentsline {subsection}{\numberline {5.31.2}Constructor \& Destructor Documentation}{60}
\contentsline {subsubsection}{\numberline {5.31.2.1}Text\discretionary {\unhbox \voidb@x \hbox {\relax \fontsize {7}{8}\selectfont $\leftarrow \joinrel \rhook $}}{}{}Element()}{60}
\contentsline {subsection}{\numberline {5.31.3}Member Function Documentation}{61}
\contentsline {subsubsection}{\numberline {5.31.3.1}get\discretionary {\unhbox \voidb@x \hbox {\relax \fontsize {7}{8}\selectfont $\leftarrow \joinrel \rhook $}}{}{}Text()}{61}
\contentsline {subsubsection}{\numberline {5.31.3.2}is\discretionary {\unhbox \voidb@x \hbox {\relax \fontsize {7}{8}\selectfont $\leftarrow \joinrel \rhook $}}{}{}Bold()}{61}
\contentsline {subsubsection}{\numberline {5.31.3.3}is\discretionary {\unhbox \voidb@x \hbox {\relax \fontsize {7}{8}\selectfont $\leftarrow \joinrel \rhook $}}{}{}H1()}{62}
\contentsline {subsubsection}{\numberline {5.31.3.4}is\discretionary {\unhbox \voidb@x \hbox {\relax \fontsize {7}{8}\selectfont $\leftarrow \joinrel \rhook $}}{}{}P()}{62}
\contentsline {subsubsection}{\numberline {5.31.3.5}is\discretionary {\unhbox \voidb@x \hbox {\relax \fontsize {7}{8}\selectfont $\leftarrow \joinrel \rhook $}}{}{}Underline()}{62}
\contentsline {section}{\numberline {5.32}Timer Class Reference}{63}
\contentsline {subsection}{\numberline {5.32.1}Detailed Description}{63}
\contentsline {subsection}{\numberline {5.32.2}Member Function Documentation}{63}
\contentsline {subsubsection}{\numberline {5.32.2.1}Set\discretionary {\unhbox \voidb@x \hbox {\relax \fontsize {7}{8}\selectfont $\leftarrow \joinrel \rhook $}}{}{}Label()}{63}
\contentsline {section}{\numberline {5.33}Tooltip Class Reference}{63}
\contentsline {subsection}{\numberline {5.33.1}Detailed Description}{64}
\contentsline {subsection}{\numberline {5.33.2}Member Function Documentation}{64}
\contentsline {subsubsection}{\numberline {5.33.2.1}add\discretionary {\unhbox \voidb@x \hbox {\relax \fontsize {7}{8}\selectfont $\leftarrow \joinrel \rhook $}}{}{}To\discretionary {\unhbox \voidb@x \hbox {\relax \fontsize {7}{8}\selectfont $\leftarrow \joinrel \rhook $}}{}{}Tooltip()}{64}
\contentsline {section}{\numberline {5.34}Trash\discretionary {\unhbox \voidb@x \hbox {\relax \fontsize {7}{8}\selectfont $\leftarrow \joinrel \rhook $}}{}{}Script Class Reference}{64}
\contentsline {subsection}{\numberline {5.34.1}Detailed Description}{65}
\contentsline {subsection}{\numberline {5.34.2}Member Function Documentation}{65}
\contentsline {subsubsection}{\numberline {5.34.2.1}Destroy\discretionary {\unhbox \voidb@x \hbox {\relax \fontsize {7}{8}\selectfont $\leftarrow \joinrel \rhook $}}{}{}Equipment()}{65}
\contentsline {section}{\numberline {5.35}Tris\discretionary {\unhbox \voidb@x \hbox {\relax \fontsize {7}{8}\selectfont $\leftarrow \joinrel \rhook $}}{}{}H\discretionary {\unhbox \voidb@x \hbox {\relax \fontsize {7}{8}\selectfont $\leftarrow \joinrel \rhook $}}{}{}Cl Class Reference}{65}
\contentsline {subsection}{\numberline {5.35.1}Detailed Description}{66}
\contentsline {subsection}{\numberline {5.35.2}Member Function Documentation}{66}
\contentsline {subsubsection}{\numberline {5.35.2.1}add\discretionary {\unhbox \voidb@x \hbox {\relax \fontsize {7}{8}\selectfont $\leftarrow \joinrel \rhook $}}{}{}To\discretionary {\unhbox \voidb@x \hbox {\relax \fontsize {7}{8}\selectfont $\leftarrow \joinrel \rhook $}}{}{}Game\discretionary {\unhbox \voidb@x \hbox {\relax \fontsize {7}{8}\selectfont $\leftarrow \joinrel \rhook $}}{}{}Object()}{66}
\contentsline {section}{\numberline {5.36}U\discretionary {\unhbox \voidb@x \hbox {\relax \fontsize {7}{8}\selectfont $\leftarrow \joinrel \rhook $}}{}{}I\discretionary {\unhbox \voidb@x \hbox {\relax \fontsize {7}{8}\selectfont $\leftarrow \joinrel \rhook $}}{}{}Controller Class Reference}{66}
\contentsline {subsection}{\numberline {5.36.1}Detailed Description}{68}
\contentsline {subsection}{\numberline {5.36.2}Member Function Documentation}{69}
\contentsline {subsubsection}{\numberline {5.36.2.1}add\discretionary {\unhbox \voidb@x \hbox {\relax \fontsize {7}{8}\selectfont $\leftarrow \joinrel \rhook $}}{}{}Grid\discretionary {\unhbox \voidb@x \hbox {\relax \fontsize {7}{8}\selectfont $\leftarrow \joinrel \rhook $}}{}{}Layout()}{69}
\contentsline {subsubsection}{\numberline {5.36.2.2}add\discretionary {\unhbox \voidb@x \hbox {\relax \fontsize {7}{8}\selectfont $\leftarrow \joinrel \rhook $}}{}{}Imageto\discretionary {\unhbox \voidb@x \hbox {\relax \fontsize {7}{8}\selectfont $\leftarrow \joinrel \rhook $}}{}{}Lab\discretionary {\unhbox \voidb@x \hbox {\relax \fontsize {7}{8}\selectfont $\leftarrow \joinrel \rhook $}}{}{}Manual()}{70}
\contentsline {subsubsection}{\numberline {5.36.2.3}add\discretionary {\unhbox \voidb@x \hbox {\relax \fontsize {7}{8}\selectfont $\leftarrow \joinrel \rhook $}}{}{}Scroll\discretionary {\unhbox \voidb@x \hbox {\relax \fontsize {7}{8}\selectfont $\leftarrow \joinrel \rhook $}}{}{}Bar()}{70}
\contentsline {subsubsection}{\numberline {5.36.2.4}add\discretionary {\unhbox \voidb@x \hbox {\relax \fontsize {7}{8}\selectfont $\leftarrow \joinrel \rhook $}}{}{}Simple\discretionary {\unhbox \voidb@x \hbox {\relax \fontsize {7}{8}\selectfont $\leftarrow \joinrel \rhook $}}{}{}Number\discretionary {\unhbox \voidb@x \hbox {\relax \fontsize {7}{8}\selectfont $\leftarrow \joinrel \rhook $}}{}{}Counter()}{72}
\contentsline {subsubsection}{\numberline {5.36.2.5}add\discretionary {\unhbox \voidb@x \hbox {\relax \fontsize {7}{8}\selectfont $\leftarrow \joinrel \rhook $}}{}{}Text\discretionary {\unhbox \voidb@x \hbox {\relax \fontsize {7}{8}\selectfont $\leftarrow \joinrel \rhook $}}{}{}To\discretionary {\unhbox \voidb@x \hbox {\relax \fontsize {7}{8}\selectfont $\leftarrow \joinrel \rhook $}}{}{}Lab\discretionary {\unhbox \voidb@x \hbox {\relax \fontsize {7}{8}\selectfont $\leftarrow \joinrel \rhook $}}{}{}Manual()}{74}
\contentsline {subsubsection}{\numberline {5.36.2.6}create\discretionary {\unhbox \voidb@x \hbox {\relax \fontsize {7}{8}\selectfont $\leftarrow \joinrel \rhook $}}{}{}Button\discretionary {\unhbox \voidb@x \hbox {\relax \fontsize {7}{8}\selectfont $\leftarrow \joinrel \rhook $}}{}{}With\discretionary {\unhbox \voidb@x \hbox {\relax \fontsize {7}{8}\selectfont $\leftarrow \joinrel \rhook $}}{}{}Icon()}{76}
\contentsline {subsubsection}{\numberline {5.36.2.7}create\discretionary {\unhbox \voidb@x \hbox {\relax \fontsize {7}{8}\selectfont $\leftarrow \joinrel \rhook $}}{}{}Equipment\discretionary {\unhbox \voidb@x \hbox {\relax \fontsize {7}{8}\selectfont $\leftarrow \joinrel \rhook $}}{}{}Menu()}{76}
\contentsline {subsubsection}{\numberline {5.36.2.8}create\discretionary {\unhbox \voidb@x \hbox {\relax \fontsize {7}{8}\selectfont $\leftarrow \joinrel \rhook $}}{}{}Input\discretionary {\unhbox \voidb@x \hbox {\relax \fontsize {7}{8}\selectfont $\leftarrow \joinrel \rhook $}}{}{}Field()}{77}
\contentsline {subsubsection}{\numberline {5.36.2.9}create\discretionary {\unhbox \voidb@x \hbox {\relax \fontsize {7}{8}\selectfont $\leftarrow \joinrel \rhook $}}{}{}Panel()}{79}
\contentsline {subsubsection}{\numberline {5.36.2.10}create\discretionary {\unhbox \voidb@x \hbox {\relax \fontsize {7}{8}\selectfont $\leftarrow \joinrel \rhook $}}{}{}Scroll\discretionary {\unhbox \voidb@x \hbox {\relax \fontsize {7}{8}\selectfont $\leftarrow \joinrel \rhook $}}{}{}Panel()}{81}
\contentsline {subsubsection}{\numberline {5.36.2.11}create\discretionary {\unhbox \voidb@x \hbox {\relax \fontsize {7}{8}\selectfont $\leftarrow \joinrel \rhook $}}{}{}Simple\discretionary {\unhbox \voidb@x \hbox {\relax \fontsize {7}{8}\selectfont $\leftarrow \joinrel \rhook $}}{}{}Number\discretionary {\unhbox \voidb@x \hbox {\relax \fontsize {7}{8}\selectfont $\leftarrow \joinrel \rhook $}}{}{}Counter\discretionary {\unhbox \voidb@x \hbox {\relax \fontsize {7}{8}\selectfont $\leftarrow \joinrel \rhook $}}{}{}Panel()}{82}
\contentsline {subsubsection}{\numberline {5.36.2.12}create\discretionary {\unhbox \voidb@x \hbox {\relax \fontsize {7}{8}\selectfont $\leftarrow \joinrel \rhook $}}{}{}Tooltip()}{82}
\contentsline {subsubsection}{\numberline {5.36.2.13}get\discretionary {\unhbox \voidb@x \hbox {\relax \fontsize {7}{8}\selectfont $\leftarrow \joinrel \rhook $}}{}{}Canvas()}{83}
\contentsline {subsubsection}{\numberline {5.36.2.14}get\discretionary {\unhbox \voidb@x \hbox {\relax \fontsize {7}{8}\selectfont $\leftarrow \joinrel \rhook $}}{}{}Content\discretionary {\unhbox \voidb@x \hbox {\relax \fontsize {7}{8}\selectfont $\leftarrow \joinrel \rhook $}}{}{}Area\discretionary {\unhbox \voidb@x \hbox {\relax \fontsize {7}{8}\selectfont $\leftarrow \joinrel \rhook $}}{}{}Game\discretionary {\unhbox \voidb@x \hbox {\relax \fontsize {7}{8}\selectfont $\leftarrow \joinrel \rhook $}}{}{}Object()}{83}
\contentsline {subsubsection}{\numberline {5.36.2.15}get\discretionary {\unhbox \voidb@x \hbox {\relax \fontsize {7}{8}\selectfont $\leftarrow \joinrel \rhook $}}{}{}Mouse\discretionary {\unhbox \voidb@x \hbox {\relax \fontsize {7}{8}\selectfont $\leftarrow \joinrel \rhook $}}{}{}Screen\discretionary {\unhbox \voidb@x \hbox {\relax \fontsize {7}{8}\selectfont $\leftarrow \joinrel \rhook $}}{}{}Pos()}{84}
\contentsline {subsubsection}{\numberline {5.36.2.16}get\discretionary {\unhbox \voidb@x \hbox {\relax \fontsize {7}{8}\selectfont $\leftarrow \joinrel \rhook $}}{}{}U\discretionary {\unhbox \voidb@x \hbox {\relax \fontsize {7}{8}\selectfont $\leftarrow \joinrel \rhook $}}{}{}I\discretionary {\unhbox \voidb@x \hbox {\relax \fontsize {7}{8}\selectfont $\leftarrow \joinrel \rhook $}}{}{}Controller()}{84}
\contentsline {section}{\numberline {5.37}Utils Class Reference}{84}
\contentsline {subsection}{\numberline {5.37.1}Detailed Description}{85}
\contentsline {subsection}{\numberline {5.37.2}Member Function Documentation}{85}
\contentsline {subsubsection}{\numberline {5.37.2.1}Copy\discretionary {\unhbox \voidb@x \hbox {\relax \fontsize {7}{8}\selectfont $\leftarrow \joinrel \rhook $}}{}{}Component()}{85}
\contentsline {subsubsection}{\numberline {5.37.2.2}get\discretionary {\unhbox \voidb@x \hbox {\relax \fontsize {7}{8}\selectfont $\leftarrow \joinrel \rhook $}}{}{}Child\discretionary {\unhbox \voidb@x \hbox {\relax \fontsize {7}{8}\selectfont $\leftarrow \joinrel \rhook $}}{}{}Game\discretionary {\unhbox \voidb@x \hbox {\relax \fontsize {7}{8}\selectfont $\leftarrow \joinrel \rhook $}}{}{}Object()}{85}
\contentsline {section}{\numberline {5.38}Water Class Reference}{86}
\contentsline {subsection}{\numberline {5.38.1}Detailed Description}{86}
\contentsline {subsection}{\numberline {5.38.2}Member Function Documentation}{86}
\contentsline {subsubsection}{\numberline {5.38.2.1}add\discretionary {\unhbox \voidb@x \hbox {\relax \fontsize {7}{8}\selectfont $\leftarrow \joinrel \rhook $}}{}{}To\discretionary {\unhbox \voidb@x \hbox {\relax \fontsize {7}{8}\selectfont $\leftarrow \joinrel \rhook $}}{}{}Game\discretionary {\unhbox \voidb@x \hbox {\relax \fontsize {7}{8}\selectfont $\leftarrow \joinrel \rhook $}}{}{}Object()}{86}
\contentsline {subsubsection}{\numberline {5.38.2.2}pour()}{87}
\contentsline {chapter}{Index}{89}
