\relax 
\providecommand \oddpage@label [2]{}
\@writefile{toc}{\contentsline {chapter}{\numberline {1}Namespace Index}{1}}
\@writefile{lof}{\addvspace {10\p@ }}
\@writefile{lot}{\addvspace {10\p@ }}
\@writefile{toc}{\contentsline {section}{\numberline {1.1}Packages}{1}}
\@writefile{toc}{\contentsline {chapter}{\numberline {2}Hierarchical Index}{3}}
\@writefile{lof}{\addvspace {10\p@ }}
\@writefile{lot}{\addvspace {10\p@ }}
\@writefile{toc}{\contentsline {section}{\numberline {2.1}Class Hierarchy}{3}}
\@writefile{toc}{\contentsline {chapter}{\numberline {3}Class Index}{5}}
\@writefile{lof}{\addvspace {10\p@ }}
\@writefile{lot}{\addvspace {10\p@ }}
\@writefile{toc}{\contentsline {section}{\numberline {3.1}Class List}{5}}
\@writefile{toc}{\contentsline {chapter}{\numberline {4}Namespace Documentation}{7}}
\@writefile{lof}{\addvspace {10\p@ }}
\@writefile{lot}{\addvspace {10\p@ }}
\@writefile{toc}{\contentsline {section}{\numberline {4.1}Assets Namespace Reference}{7}}
\newlabel{namespace_assets}{{4.1}{7}}
\@writefile{toc}{\contentsline {section}{\numberline {4.2}Assets.\discretionary {\unhbox \voidb@x \hbox {\relax \fontsize  {7}{8}\selectfont  $\leftarrow \joinrel  \rhook $}}{}{}Custom\discretionary {\unhbox \voidb@x \hbox {\relax \fontsize  {7}{8}\selectfont  $\leftarrow \joinrel  \rhook $}}{}{}Assets Namespace Reference}{7}}
\newlabel{namespace_assets_1_1_custom_assets}{{4.2}{7}}
\@writefile{toc}{\contentsline {section}{\numberline {4.3}Assets.\discretionary {\unhbox \voidb@x \hbox {\relax \fontsize  {7}{8}\selectfont  $\leftarrow \joinrel  \rhook $}}{}{}Custom\discretionary {\unhbox \voidb@x \hbox {\relax \fontsize  {7}{8}\selectfont  $\leftarrow \joinrel  \rhook $}}{}{}Assets.\discretionary {\unhbox \voidb@x \hbox {\relax \fontsize  {7}{8}\selectfont  $\leftarrow \joinrel  \rhook $}}{}{}Scripts Namespace Reference}{7}}
\newlabel{namespace_assets_1_1_custom_assets_1_1_scripts}{{4.3}{7}}
\@writefile{toc}{\contentsline {section}{\numberline {4.4}Assets.\discretionary {\unhbox \voidb@x \hbox {\relax \fontsize  {7}{8}\selectfont  $\leftarrow \joinrel  \rhook $}}{}{}Custom\discretionary {\unhbox \voidb@x \hbox {\relax \fontsize  {7}{8}\selectfont  $\leftarrow \joinrel  \rhook $}}{}{}Assets.\discretionary {\unhbox \voidb@x \hbox {\relax \fontsize  {7}{8}\selectfont  $\leftarrow \joinrel  \rhook $}}{}{}Scripts.\discretionary {\unhbox \voidb@x \hbox {\relax \fontsize  {7}{8}\selectfont  $\leftarrow \joinrel  \rhook $}}{}{}Manual Namespace Reference}{7}}
\newlabel{namespace_assets_1_1_custom_assets_1_1_scripts_1_1_manual}{{4.4}{7}}
\@writefile{toc}{\contentsline {section}{\numberline {4.5}Assets.\discretionary {\unhbox \voidb@x \hbox {\relax \fontsize  {7}{8}\selectfont  $\leftarrow \joinrel  \rhook $}}{}{}Custom\discretionary {\unhbox \voidb@x \hbox {\relax \fontsize  {7}{8}\selectfont  $\leftarrow \joinrel  \rhook $}}{}{}Assets.\discretionary {\unhbox \voidb@x \hbox {\relax \fontsize  {7}{8}\selectfont  $\leftarrow \joinrel  \rhook $}}{}{}Scripts.\discretionary {\unhbox \voidb@x \hbox {\relax \fontsize  {7}{8}\selectfont  $\leftarrow \joinrel  \rhook $}}{}{}Parsers Namespace Reference}{7}}
\newlabel{namespace_assets_1_1_custom_assets_1_1_scripts_1_1_parsers}{{4.5}{7}}
\@writefile{toc}{\contentsline {chapter}{\numberline {5}Class Documentation}{9}}
\@writefile{lof}{\addvspace {10\p@ }}
\@writefile{lot}{\addvspace {10\p@ }}
\@writefile{toc}{\contentsline {section}{\numberline {5.1}Aldolase Class Reference}{9}}
\newlabel{class_aldolase}{{5.1}{9}}
\newlabel{class_aldolase_acd9a0025ddf75527ee668f4731a73a3a}{{5.1}{9}}
\newlabel{class_aldolase_a131e42dbfe80a3201a068777632b5889}{{5.1}{9}}
\newlabel{class_aldolase_a8b9942657a0c4f9b4bfa40a44d85f2ce}{{5.1}{9}}
\newlabel{class_aldolase_a38cb945f4d0e674da37317d454a69687}{{5.1}{9}}
\newlabel{class_aldolase_a5fd612b716d96bcb15a1623e2b5b8476}{{5.1}{9}}
\newlabel{class_aldolase_a908fbebc99bbbc6b1cd0a538eea18434}{{5.1}{9}}
\newlabel{class_aldolase_a28c796be2efeac26068181ab43a41550}{{5.1}{9}}
\@writefile{toc}{\contentsline {subsection}{\numberline {5.1.1}Detailed Description}{9}}
\@writefile{toc}{\contentsline {subsection}{\numberline {5.1.2}Member Function Documentation}{9}}
\newlabel{class_aldolase_a93fe8ea6af40aaf0d1bcbc1cb55c374a}{{5.1.2}{9}}
\@writefile{toc}{\contentsline {subsubsection}{\numberline {5.1.2.1}add\discretionary {\unhbox \voidb@x \hbox {\relax \fontsize  {7}{8}\selectfont  $\leftarrow \joinrel  \rhook $}}{}{}To\discretionary {\unhbox \voidb@x \hbox {\relax \fontsize  {7}{8}\selectfont  $\leftarrow \joinrel  \rhook $}}{}{}Game\discretionary {\unhbox \voidb@x \hbox {\relax \fontsize  {7}{8}\selectfont  $\leftarrow \joinrel  \rhook $}}{}{}Object()}{9}}
\gdef \LT@i {\LT@entry 
    {3}{105.33624pt}\LT@entry 
    {3}{126.45467pt}}
\@writefile{toc}{\contentsline {section}{\numberline {5.2}Alkaline\discretionary {\unhbox \voidb@x \hbox {\relax \fontsize  {7}{8}\selectfont  $\leftarrow \joinrel  \rhook $}}{}{}Phosphatase Class Reference}{10}}
\newlabel{class_alkaline_phosphatase}{{5.2}{10}}
\newlabel{class_alkaline_phosphatase_aa27dea1ae36ab28bd76ee61e09cc9e10}{{5.2}{10}}
\newlabel{class_alkaline_phosphatase_a718abadcd72c9bc9b160500afc0f0f6b}{{5.2}{10}}
\newlabel{class_alkaline_phosphatase_af2215b8543385a3fee5645acd53a5607}{{5.2}{10}}
\newlabel{class_alkaline_phosphatase_ab73e440f7cf595fdbfe572aa7d3aaf18}{{5.2}{10}}
\newlabel{class_alkaline_phosphatase_a05b2795a4bcc2dbda0ffdb83417ddd2e}{{5.2}{10}}
\newlabel{class_alkaline_phosphatase_a3430b65d6e897448702343b663cc0541}{{5.2}{10}}
\newlabel{class_alkaline_phosphatase_a1a082c04a31c46fdb3daad8a5863af6e}{{5.2}{10}}
\@writefile{toc}{\contentsline {subsection}{\numberline {5.2.1}Detailed Description}{10}}
\@writefile{toc}{\contentsline {subsection}{\numberline {5.2.2}Member Function Documentation}{10}}
\newlabel{class_alkaline_phosphatase_ae94197e229e98650e4f2db35e7742891}{{5.2.2}{10}}
\@writefile{toc}{\contentsline {subsubsection}{\numberline {5.2.2.1}add\discretionary {\unhbox \voidb@x \hbox {\relax \fontsize  {7}{8}\selectfont  $\leftarrow \joinrel  \rhook $}}{}{}To\discretionary {\unhbox \voidb@x \hbox {\relax \fontsize  {7}{8}\selectfont  $\leftarrow \joinrel  \rhook $}}{}{}Game\discretionary {\unhbox \voidb@x \hbox {\relax \fontsize  {7}{8}\selectfont  $\leftarrow \joinrel  \rhook $}}{}{}Object()}{10}}
\gdef \LT@ii {\LT@entry 
    {3}{105.33624pt}\LT@entry 
    {3}{126.45467pt}}
\@writefile{toc}{\contentsline {section}{\numberline {5.3}Bottle Class Reference}{11}}
\newlabel{class_bottle}{{5.3}{11}}
\newlabel{class_bottle_abac342508f2a6ef7c6296643e05a8851}{{5.3}{11}}
\newlabel{class_bottle_a46a63f31bc68fd845d6ddb39df3713ca}{{5.3}{11}}
\newlabel{class_bottle_a4a9b1a25910c015d69d8fb8078d26fb2}{{5.3}{11}}
\@writefile{toc}{\contentsline {subsection}{\numberline {5.3.1}Detailed Description}{11}}
\@writefile{toc}{\contentsline {subsection}{\numberline {5.3.2}Member Function Documentation}{11}}
\newlabel{class_bottle_acab0447f138e5ccc90e9fe350d31181e}{{5.3.2}{11}}
\@writefile{toc}{\contentsline {subsubsection}{\numberline {5.3.2.1}add\discretionary {\unhbox \voidb@x \hbox {\relax \fontsize  {7}{8}\selectfont  $\leftarrow \joinrel  \rhook $}}{}{}To\discretionary {\unhbox \voidb@x \hbox {\relax \fontsize  {7}{8}\selectfont  $\leftarrow \joinrel  \rhook $}}{}{}Game\discretionary {\unhbox \voidb@x \hbox {\relax \fontsize  {7}{8}\selectfont  $\leftarrow \joinrel  \rhook $}}{}{}Object()}{11}}
\gdef \LT@iii {\LT@entry 
    {3}{61.3181pt}\LT@entry 
    {3}{81.93259pt}}
\@writefile{toc}{\contentsline {section}{\numberline {5.4}Bovine\discretionary {\unhbox \voidb@x \hbox {\relax \fontsize  {7}{8}\selectfont  $\leftarrow \joinrel  \rhook $}}{}{}Serum\discretionary {\unhbox \voidb@x \hbox {\relax \fontsize  {7}{8}\selectfont  $\leftarrow \joinrel  \rhook $}}{}{}Albumin Class Reference}{12}}
\newlabel{class_bovine_serum_albumin}{{5.4}{12}}
\newlabel{class_bovine_serum_albumin_a02275484a71e5691dbbc1002843daa04}{{5.4}{12}}
\newlabel{class_bovine_serum_albumin_aa42b2c519ba7c0530561ce0724301385}{{5.4}{12}}
\newlabel{class_bovine_serum_albumin_a4bf2ab3410c0e86b89ee0cce067ba49d}{{5.4}{12}}
\newlabel{class_bovine_serum_albumin_ae273fd8e8640cecc547f9104bc231556}{{5.4}{12}}
\newlabel{class_bovine_serum_albumin_a7c884a4b3bb98cb05f1466edfa2c24a0}{{5.4}{12}}
\newlabel{class_bovine_serum_albumin_a5c57f45864a3c33eec593016678da255}{{5.4}{12}}
\newlabel{class_bovine_serum_albumin_a02c361d445651f95ff3d2c38abd8481a}{{5.4}{12}}
\gdef \LT@iv {\LT@entry 
    {3}{105.33624pt}\LT@entry 
    {3}{126.45467pt}}
\@writefile{toc}{\contentsline {subsection}{\numberline {5.4.1}Detailed Description}{13}}
\@writefile{toc}{\contentsline {subsection}{\numberline {5.4.2}Member Function Documentation}{13}}
\newlabel{class_bovine_serum_albumin_a60de0f1584b6073b8d8cc5671a501829}{{5.4.2}{13}}
\@writefile{toc}{\contentsline {subsubsection}{\numberline {5.4.2.1}add\discretionary {\unhbox \voidb@x \hbox {\relax \fontsize  {7}{8}\selectfont  $\leftarrow \joinrel  \rhook $}}{}{}To\discretionary {\unhbox \voidb@x \hbox {\relax \fontsize  {7}{8}\selectfont  $\leftarrow \joinrel  \rhook $}}{}{}Game\discretionary {\unhbox \voidb@x \hbox {\relax \fontsize  {7}{8}\selectfont  $\leftarrow \joinrel  \rhook $}}{}{}Object()}{13}}
\@writefile{toc}{\contentsline {section}{\numberline {5.5}Container Class Reference}{13}}
\newlabel{class_container}{{5.5}{13}}
\gdef \LT@v {\LT@entry 
    {3}{32.30266pt}\LT@entry 
    {3}{51.9632pt}}
\newlabel{class_container_ad27f4646634a650c2b347c3591a4d758}{{5.5}{14}}
\@writefile{toc}{\contentsline {subsection}{\numberline {5.5.1}Detailed Description}{14}}
\@writefile{toc}{\contentsline {subsection}{\numberline {5.5.2}Member Function Documentation}{14}}
\newlabel{class_container_a98577e145cb77a862b4750c5f317b02b}{{5.5.2}{14}}
\@writefile{toc}{\contentsline {subsubsection}{\numberline {5.5.2.1}change\discretionary {\unhbox \voidb@x \hbox {\relax \fontsize  {7}{8}\selectfont  $\leftarrow \joinrel  \rhook $}}{}{}Filler\discretionary {\unhbox \voidb@x \hbox {\relax \fontsize  {7}{8}\selectfont  $\leftarrow \joinrel  \rhook $}}{}{}Color()}{14}}
\newlabel{class_container_a08024d95026e8aba541226b15e959965}{{5.5.2.1}{14}}
\gdef \LT@vi {\LT@entry 
    {3}{61.82204pt}\LT@entry 
    {3}{83.4355pt}}
\@writefile{toc}{\contentsline {subsubsection}{\numberline {5.5.2.2}deduct()}{15}}
\newlabel{class_container_a7fda2f821ed978be39ed3f73820c959a}{{5.5.2.2}{15}}
\@writefile{toc}{\contentsline {subsubsection}{\numberline {5.5.2.3}get\discretionary {\unhbox \voidb@x \hbox {\relax \fontsize  {7}{8}\selectfont  $\leftarrow \joinrel  \rhook $}}{}{}Current()}{15}}
\newlabel{class_container_a241f1bf4eff019a3e3db9ff28e9d136b}{{5.5.2.3}{15}}
\@writefile{toc}{\contentsline {subsubsection}{\numberline {5.5.2.4}get\discretionary {\unhbox \voidb@x \hbox {\relax \fontsize  {7}{8}\selectfont  $\leftarrow \joinrel  \rhook $}}{}{}Materials()}{15}}
\newlabel{class_container_a1f4a67c1ffdcad4c98295800be76cbd5}{{5.5.2.4}{15}}
\@writefile{toc}{\contentsline {subsubsection}{\numberline {5.5.2.5}get\discretionary {\unhbox \voidb@x \hbox {\relax \fontsize  {7}{8}\selectfont  $\leftarrow \joinrel  \rhook $}}{}{}Max()}{16}}
\newlabel{class_container_a1f6bbdd65293a303d89cedcc28b5d4fe}{{5.5.2.5}{16}}
\@writefile{toc}{\contentsline {subsubsection}{\numberline {5.5.2.6}get\discretionary {\unhbox \voidb@x \hbox {\relax \fontsize  {7}{8}\selectfont  $\leftarrow \joinrel  \rhook $}}{}{}Measurement()}{16}}
\newlabel{class_container_a9a868e39ccc8e116b66fc1b8673dbfe8}{{5.5.2.6}{16}}
\@writefile{toc}{\contentsline {subsubsection}{\numberline {5.5.2.7}get\discretionary {\unhbox \voidb@x \hbox {\relax \fontsize  {7}{8}\selectfont  $\leftarrow \joinrel  \rhook $}}{}{}Min()}{16}}
\newlabel{class_container_a3c41faacabce1337cc167d3854d52112}{{5.5.2.7}{16}}
\@writefile{toc}{\contentsline {subsubsection}{\numberline {5.5.2.8}init\discretionary {\unhbox \voidb@x \hbox {\relax \fontsize  {7}{8}\selectfont  $\leftarrow \joinrel  \rhook $}}{}{}Filler\discretionary {\unhbox \voidb@x \hbox {\relax \fontsize  {7}{8}\selectfont  $\leftarrow \joinrel  \rhook $}}{}{}Color()}{16}}
\gdef \LT@vii {\LT@entry 
    {3}{32.30266pt}\LT@entry 
    {3}{51.9632pt}}
\gdef \LT@viii {\LT@entry 
    {3}{52.93909pt}\LT@entry 
    {3}{73.9137pt}}
\gdef \LT@ix {\LT@entry 
    {3}{42.8144pt}\LT@entry 
    {3}{62.92496pt}}
\newlabel{class_container_ae14c4f5d90c714aec957600fae65e3cf}{{5.5.2.8}{17}}
\@writefile{toc}{\contentsline {subsubsection}{\numberline {5.5.2.9}init\discretionary {\unhbox \voidb@x \hbox {\relax \fontsize  {7}{8}\selectfont  $\leftarrow \joinrel  \rhook $}}{}{}Filler\discretionary {\unhbox \voidb@x \hbox {\relax \fontsize  {7}{8}\selectfont  $\leftarrow \joinrel  \rhook $}}{}{}Sprite()}{17}}
\newlabel{class_container_a4bcdd2c7647e74fefc6402471178d906}{{5.5.2.9}{17}}
\@writefile{toc}{\contentsline {subsubsection}{\numberline {5.5.2.10}pour()}{17}}
\gdef \LT@x {\LT@entry 
    {3}{29.80077pt}\LT@entry 
    {3}{71.81699pt}}
\newlabel{class_container_a62d7aa3b067a434055a8402912915869}{{5.5.2.10}{18}}
\@writefile{toc}{\contentsline {subsubsection}{\numberline {5.5.2.11}set\discretionary {\unhbox \voidb@x \hbox {\relax \fontsize  {7}{8}\selectfont  $\leftarrow \joinrel  \rhook $}}{}{}Max()}{18}}
\newlabel{class_container_a5d938a6608ab1d8335a7ac9cca71c3c7}{{5.5.2.11}{18}}
\@writefile{toc}{\contentsline {subsubsection}{\numberline {5.5.2.12}set\discretionary {\unhbox \voidb@x \hbox {\relax \fontsize  {7}{8}\selectfont  $\leftarrow \joinrel  \rhook $}}{}{}Measurement()}{18}}
\gdef \LT@xi {\LT@entry 
    {3}{67.81602pt}\LT@entry 
    {3}{87.92657pt}}
\gdef \LT@xii {\LT@entry 
    {3}{27.29875pt}\LT@entry 
    {3}{69.31497pt}}
\gdef \LT@xiii {\LT@entry 
    {3}{44.93825pt}\LT@entry 
    {3}{65.0488pt}}
\newlabel{class_container_a49a99527ad8f470a0cd59728c902d60f}{{5.5.2.12}{19}}
\@writefile{toc}{\contentsline {subsubsection}{\numberline {5.5.2.13}set\discretionary {\unhbox \voidb@x \hbox {\relax \fontsize  {7}{8}\selectfont  $\leftarrow \joinrel  \rhook $}}{}{}Min()}{19}}
\newlabel{class_container_a2978f6d0dce30ce34e480754eae03932}{{5.5.2.13}{19}}
\@writefile{toc}{\contentsline {subsubsection}{\numberline {5.5.2.14}show\discretionary {\unhbox \voidb@x \hbox {\relax \fontsize  {7}{8}\selectfont  $\leftarrow \joinrel  \rhook $}}{}{}Pour()\hspace  {0.1cm}{\relax \fontsize  {8}{9.5}\selectfont  \abovedisplayskip 6\p@ plus2\p@ minus4\p@ \abovedisplayshortskip \z@ plus\p@ \belowdisplayshortskip 3\p@ plus\p@ minus2\p@ \def \leftmargin \leftmargini \parsep 4\p@ plus2\p@ minus\p@ \topsep 8\p@ plus2\p@ minus4\p@ \itemsep 4\p@ plus2\p@ minus\p@ {\leftmargin \leftmargini \topsep 3\p@ plus\p@ minus\p@ \parsep 2\p@ plus\p@ minus\p@ \itemsep \parsep }\belowdisplayskip \abovedisplayskip \ttfamily  [1/2]}}{19}}
\newlabel{class_container_acfa4cd25afad6155b0eaa326427d5453}{{5.5.2.14}{19}}
\gdef \LT@xiv {\LT@entry 
    {3}{49.81627pt}\LT@entry 
    {3}{69.4768pt}}
\@writefile{toc}{\contentsline {subsubsection}{\numberline {5.5.2.15}show\discretionary {\unhbox \voidb@x \hbox {\relax \fontsize  {7}{8}\selectfont  $\leftarrow \joinrel  \rhook $}}{}{}Pour()\hspace  {0.1cm}{\relax \fontsize  {8}{9.5}\selectfont  \abovedisplayskip 6\p@ plus2\p@ minus4\p@ \abovedisplayshortskip \z@ plus\p@ \belowdisplayshortskip 3\p@ plus\p@ minus2\p@ \def \leftmargin \leftmargini \parsep 4\p@ plus2\p@ minus\p@ \topsep 8\p@ plus2\p@ minus4\p@ \itemsep 4\p@ plus2\p@ minus\p@ {\leftmargin \leftmargini \topsep 3\p@ plus\p@ minus\p@ \parsep 2\p@ plus\p@ minus\p@ \itemsep \parsep }\belowdisplayskip \abovedisplayskip \ttfamily  [2/2]}}{20}}
\@writefile{toc}{\contentsline {section}{\numberline {5.6}Cuvette Class Reference}{20}}
\newlabel{class_cuvette}{{5.6}{20}}
\newlabel{class_cuvette_af8b3c0baad558f8243b0467648e02e4f}{{5.6}{20}}
\newlabel{class_cuvette_a241ad37288febceea4176c6be6b0d7ee}{{5.6}{20}}
\newlabel{class_cuvette_a315f071aebc085360d6780ee8b1197d9}{{5.6}{20}}
\@writefile{toc}{\contentsline {subsection}{\numberline {5.6.1}Detailed Description}{20}}
\@writefile{toc}{\contentsline {subsection}{\numberline {5.6.2}Member Function Documentation}{21}}
\newlabel{class_cuvette_a42d118fff8869421308a94b745e80c4b}{{5.6.2}{21}}
\@writefile{toc}{\contentsline {subsubsection}{\numberline {5.6.2.1}add\discretionary {\unhbox \voidb@x \hbox {\relax \fontsize  {7}{8}\selectfont  $\leftarrow \joinrel  \rhook $}}{}{}To\discretionary {\unhbox \voidb@x \hbox {\relax \fontsize  {7}{8}\selectfont  $\leftarrow \joinrel  \rhook $}}{}{}Game\discretionary {\unhbox \voidb@x \hbox {\relax \fontsize  {7}{8}\selectfont  $\leftarrow \joinrel  \rhook $}}{}{}Object()}{21}}
\gdef \LT@xv {\LT@entry 
    {3}{105.33624pt}\LT@entry 
    {3}{126.45467pt}}
\@writefile{toc}{\contentsline {section}{\numberline {5.7}Draggable Class Reference}{22}}
\newlabel{class_draggable}{{5.7}{22}}
\newlabel{class_draggable_ad59d661cec7ba69a37690b3dd447b0b5}{{5.7}{22}}
\@writefile{toc}{\contentsline {subsection}{\numberline {5.7.1}Detailed Description}{22}}
\@writefile{toc}{\contentsline {section}{\numberline {5.8}Draggable\discretionary {\unhbox \voidb@x \hbox {\relax \fontsize  {7}{8}\selectfont  $\leftarrow \joinrel  \rhook $}}{}{}Container Class Reference}{22}}
\newlabel{class_draggable_container}{{5.8}{22}}
\gdef \LT@xvi {\LT@entry 
    {3}{30.3136pt}\LT@entry 
    {3}{88.94331pt}}
\@writefile{toc}{\contentsline {subsection}{\numberline {5.8.1}Detailed Description}{23}}
\@writefile{toc}{\contentsline {section}{\numberline {5.9}Draggable\discretionary {\unhbox \voidb@x \hbox {\relax \fontsize  {7}{8}\selectfont  $\leftarrow \joinrel  \rhook $}}{}{}Material Class Reference}{23}}
\newlabel{class_draggable_material}{{5.9}{23}}
\@writefile{toc}{\contentsline {subsection}{\numberline {5.9.1}Detailed Description}{23}}
\@writefile{toc}{\contentsline {subsection}{\numberline {5.9.2}Member Function Documentation}{23}}
\newlabel{class_draggable_material_abd465797f5505914b9d3f07ef18762ea}{{5.9.2}{23}}
\@writefile{toc}{\contentsline {subsubsection}{\numberline {5.9.2.1}On\discretionary {\unhbox \voidb@x \hbox {\relax \fontsize  {7}{8}\selectfont  $\leftarrow \joinrel  \rhook $}}{}{}Drag()}{23}}
\gdef \LT@xvii {\LT@entry 
    {3}{30.3136pt}\LT@entry 
    {3}{88.94331pt}}
\gdef \LT@xviii {\LT@entry 
    {3}{30.3136pt}\LT@entry 
    {3}{88.94331pt}}
\newlabel{class_draggable_material_a7ce3cb6272eaedae660080c0f525149d}{{5.9.2.1}{24}}
\@writefile{toc}{\contentsline {subsubsection}{\numberline {5.9.2.2}On\discretionary {\unhbox \voidb@x \hbox {\relax \fontsize  {7}{8}\selectfont  $\leftarrow \joinrel  \rhook $}}{}{}Pointer\discretionary {\unhbox \voidb@x \hbox {\relax \fontsize  {7}{8}\selectfont  $\leftarrow \joinrel  \rhook $}}{}{}Down()}{24}}
\newlabel{class_draggable_material_a80146f765b913ca970202f41f39da76d}{{5.9.2.2}{24}}
\@writefile{toc}{\contentsline {subsubsection}{\numberline {5.9.2.3}On\discretionary {\unhbox \voidb@x \hbox {\relax \fontsize  {7}{8}\selectfont  $\leftarrow \joinrel  \rhook $}}{}{}Pointer\discretionary {\unhbox \voidb@x \hbox {\relax \fontsize  {7}{8}\selectfont  $\leftarrow \joinrel  \rhook $}}{}{}Up()}{24}}
\gdef \LT@xix {\LT@entry 
    {3}{30.3136pt}\LT@entry 
    {3}{88.94331pt}}
\@writefile{toc}{\contentsline {section}{\numberline {5.10}Drag\discretionary {\unhbox \voidb@x \hbox {\relax \fontsize  {7}{8}\selectfont  $\leftarrow \joinrel  \rhook $}}{}{}Panel Class Reference}{25}}
\newlabel{class_drag_panel}{{5.10}{25}}
\@writefile{toc}{\contentsline {subsection}{\numberline {5.10.1}Detailed Description}{25}}
\@writefile{toc}{\contentsline {subsection}{\numberline {5.10.2}Member Function Documentation}{25}}
\newlabel{class_drag_panel_a4c237803e5904e1241541b45b8ae185c}{{5.10.2}{25}}
\@writefile{toc}{\contentsline {subsubsection}{\numberline {5.10.2.1}On\discretionary {\unhbox \voidb@x \hbox {\relax \fontsize  {7}{8}\selectfont  $\leftarrow \joinrel  \rhook $}}{}{}Drag()}{25}}
\gdef \LT@xx {\LT@entry 
    {3}{30.3136pt}\LT@entry 
    {3}{88.94331pt}}
\newlabel{class_drag_panel_a128109b65bba35dec1fc8be4180b0732}{{5.10.2.1}{26}}
\@writefile{toc}{\contentsline {subsubsection}{\numberline {5.10.2.2}On\discretionary {\unhbox \voidb@x \hbox {\relax \fontsize  {7}{8}\selectfont  $\leftarrow \joinrel  \rhook $}}{}{}Pointer\discretionary {\unhbox \voidb@x \hbox {\relax \fontsize  {7}{8}\selectfont  $\leftarrow \joinrel  \rhook $}}{}{}Down()}{26}}
\@writefile{toc}{\contentsline {section}{\numberline {5.11}Dynamic\discretionary {\unhbox \voidb@x \hbox {\relax \fontsize  {7}{8}\selectfont  $\leftarrow \joinrel  \rhook $}}{}{}Viewport Class Reference}{26}}
\newlabel{class_dynamic_viewport}{{5.11}{26}}
\newlabel{class_dynamic_viewport_a3531cc49da4f5ad85814ee1842ec926c}{{5.11}{26}}
\@writefile{toc}{\contentsline {subsection}{\numberline {5.11.1}Detailed Description}{26}}
\@writefile{toc}{\contentsline {section}{\numberline {5.12}Equipment Class Reference}{27}}
\newlabel{class_equipment}{{5.12}{27}}
\newlabel{class_equipment_afeea0a7aa08de19771cdd1228a01f5da}{{5.12}{27}}
\newlabel{class_equipment_aaa9a12d1332b3d6390982dff0db85ea8}{{5.12}{27}}
\newlabel{class_equipment_a9a1a8721fddaeaedeec77721cfa162a7}{{5.12}{27}}
\newlabel{class_equipment_ac4bbbb97b685c2a983e40f33ad54f041}{{5.12}{27}}
\newlabel{class_equipment_ac1ffcfe0bf9dfdf8e2441ae444a6b3cc}{{5.12}{27}}
\newlabel{class_equipment_ab54fb33be56b99d6ca74923f65b582b2}{{5.12}{27}}
\gdef \LT@xxi {\LT@entry 
    {3}{61.3181pt}\LT@entry 
    {3}{81.93259pt}}
\newlabel{class_equipment_a58ea43acee7b30f0fa1db3efee33fdf2}{{5.12}{28}}
\newlabel{class_equipment_a116fd9163f53bf23d526e41abf4dc53e}{{5.12}{28}}
\newlabel{class_equipment_a162c285f3a0319c9a4a4ced005ff0b45}{{5.12}{28}}
\newlabel{class_equipment_aa6cc863411389cd3a0ae7743014592a1}{{5.12}{28}}
\newlabel{class_equipment_af37c3d3d0e2167ebac87d2ee0d6ae6f9}{{5.12}{28}}
\newlabel{class_equipment_a2707f09ec76fc28d86261e21f85cf31a}{{5.12}{28}}
\newlabel{class_equipment_aee85d7ae014d145b353d3b16a99c3c1f}{{5.12}{28}}
\newlabel{class_equipment_a85a3b970b4aa5046a48d4e36419d8233}{{5.12}{28}}
\newlabel{class_equipment_aa6b0cc4d8039f365793a9a7e3b9349f9}{{5.12}{28}}
\newlabel{class_equipment_a79503eac8697a494bd04af48ed031a6c}{{5.12}{28}}
\newlabel{class_equipment_af3b85c0894a98080742d78b9110d9ff5}{{5.12}{28}}
\newlabel{class_equipment_a294793a77846aaf4471efa106d9e299f}{{5.12}{28}}
\newlabel{class_equipment_af63decf25edd4db7562ab9e998e9ceab}{{5.12}{28}}
\newlabel{class_equipment_a5f4a22405a9f4f51687afd30b225643f}{{5.12}{28}}
\newlabel{class_equipment_aa1942dcff3e6627a01f8a39e50e6b433}{{5.12}{28}}
\@writefile{toc}{\contentsline {subsection}{\numberline {5.12.1}Detailed Description}{28}}
\@writefile{toc}{\contentsline {subsection}{\numberline {5.12.2}Member Function Documentation}{28}}
\newlabel{class_equipment_ab3349907eb90aec68db3a05ede4e3ea4}{{5.12.2}{28}}
\@writefile{toc}{\contentsline {subsubsection}{\numberline {5.12.2.1}add\discretionary {\unhbox \voidb@x \hbox {\relax \fontsize  {7}{8}\selectfont  $\leftarrow \joinrel  \rhook $}}{}{}To\discretionary {\unhbox \voidb@x \hbox {\relax \fontsize  {7}{8}\selectfont  $\leftarrow \joinrel  \rhook $}}{}{}Game\discretionary {\unhbox \voidb@x \hbox {\relax \fontsize  {7}{8}\selectfont  $\leftarrow \joinrel  \rhook $}}{}{}Object()}{28}}
\newlabel{class_equipment_aba199a5a87d642b8689fcc87372bfb0e}{{5.12.2.1}{28}}
\@writefile{toc}{\contentsline {subsubsection}{\numberline {5.12.2.2}get\discretionary {\unhbox \voidb@x \hbox {\relax \fontsize  {7}{8}\selectfont  $\leftarrow \joinrel  \rhook $}}{}{}Config\discretionary {\unhbox \voidb@x \hbox {\relax \fontsize  {7}{8}\selectfont  $\leftarrow \joinrel  \rhook $}}{}{}Panel()}{28}}
\newlabel{class_equipment_a5fe2e1b1279926b1197d0e802f40832d}{{5.12.2.2}{29}}
\@writefile{toc}{\contentsline {subsubsection}{\numberline {5.12.2.3}get\discretionary {\unhbox \voidb@x \hbox {\relax \fontsize  {7}{8}\selectfont  $\leftarrow \joinrel  \rhook $}}{}{}Equipment\discretionary {\unhbox \voidb@x \hbox {\relax \fontsize  {7}{8}\selectfont  $\leftarrow \joinrel  \rhook $}}{}{}Name()}{29}}
\newlabel{class_equipment_af060ed52db94332389fee6fe0ef2312f}{{5.12.2.3}{29}}
\@writefile{toc}{\contentsline {subsubsection}{\numberline {5.12.2.4}get\discretionary {\unhbox \voidb@x \hbox {\relax \fontsize  {7}{8}\selectfont  $\leftarrow \joinrel  \rhook $}}{}{}Equipment\discretionary {\unhbox \voidb@x \hbox {\relax \fontsize  {7}{8}\selectfont  $\leftarrow \joinrel  \rhook $}}{}{}Sprite()}{29}}
\newlabel{class_equipment_aac0fd666baa3ebeacd0e62b662491b91}{{5.12.2.4}{29}}
\@writefile{toc}{\contentsline {subsubsection}{\numberline {5.12.2.5}get\discretionary {\unhbox \voidb@x \hbox {\relax \fontsize  {7}{8}\selectfont  $\leftarrow \joinrel  \rhook $}}{}{}Sprite\discretionary {\unhbox \voidb@x \hbox {\relax \fontsize  {7}{8}\selectfont  $\leftarrow \joinrel  \rhook $}}{}{}Scale()}{29}}
\newlabel{class_equipment_a357fda6c9cec1d3d56395a1b5e455f0d}{{5.12.2.5}{29}}
\gdef \LT@xxii {\LT@entry 
    {3}{58.31215pt}\LT@entry 
    {3}{130.54929pt}}
\@writefile{toc}{\contentsline {subsubsection}{\numberline {5.12.2.6}is\discretionary {\unhbox \voidb@x \hbox {\relax \fontsize  {7}{8}\selectfont  $\leftarrow \joinrel  \rhook $}}{}{}Collider()}{30}}
\newlabel{class_equipment_a9ac100a6dfdb4f740661ac00b4c9a538}{{5.12.2.6}{30}}
\@writefile{toc}{\contentsline {subsubsection}{\numberline {5.12.2.7}Is\discretionary {\unhbox \voidb@x \hbox {\relax \fontsize  {7}{8}\selectfont  $\leftarrow \joinrel  \rhook $}}{}{}Container()\hspace  {0.1cm}{\relax \fontsize  {8}{9.5}\selectfont  \abovedisplayskip 6\p@ plus2\p@ minus4\p@ \abovedisplayshortskip \z@ plus\p@ \belowdisplayshortskip 3\p@ plus\p@ minus2\p@ \def \leftmargin \leftmargini \parsep 4\p@ plus2\p@ minus\p@ \topsep 8\p@ plus2\p@ minus4\p@ \itemsep 4\p@ plus2\p@ minus\p@ {\leftmargin \leftmargini \topsep 3\p@ plus\p@ minus\p@ \parsep 2\p@ plus\p@ minus\p@ \itemsep \parsep }\belowdisplayskip \abovedisplayskip \ttfamily  [1/2]}}{30}}
\newlabel{class_equipment_a10e44eaef4c99f8f5e267ffbb21d592e}{{5.12.2.7}{30}}
\@writefile{toc}{\contentsline {subsubsection}{\numberline {5.12.2.8}Is\discretionary {\unhbox \voidb@x \hbox {\relax \fontsize  {7}{8}\selectfont  $\leftarrow \joinrel  \rhook $}}{}{}Container()\hspace  {0.1cm}{\relax \fontsize  {8}{9.5}\selectfont  \abovedisplayskip 6\p@ plus2\p@ minus4\p@ \abovedisplayshortskip \z@ plus\p@ \belowdisplayshortskip 3\p@ plus\p@ minus2\p@ \def \leftmargin \leftmargini \parsep 4\p@ plus2\p@ minus\p@ \topsep 8\p@ plus2\p@ minus4\p@ \itemsep 4\p@ plus2\p@ minus\p@ {\leftmargin \leftmargini \topsep 3\p@ plus\p@ minus\p@ \parsep 2\p@ plus\p@ minus\p@ \itemsep \parsep }\belowdisplayskip \abovedisplayskip \ttfamily  [2/2]}}{30}}
\newlabel{class_equipment_a2288477724a6363a1e9050ce0cb7c56d}{{5.12.2.8}{30}}
\gdef \LT@xxiii {\LT@entry 
    {3}{29.80077pt}\LT@entry 
    {3}{71.81699pt}}
\gdef \LT@xxiv {\LT@entry 
    {3}{67.81602pt}\LT@entry 
    {3}{87.92657pt}}
\@writefile{toc}{\contentsline {subsubsection}{\numberline {5.12.2.9}is\discretionary {\unhbox \voidb@x \hbox {\relax \fontsize  {7}{8}\selectfont  $\leftarrow \joinrel  \rhook $}}{}{}Visible()}{31}}
\newlabel{class_equipment_adc448cdfcc610670fd7e83f8f4aa2db4}{{5.12.2.9}{31}}
\@writefile{toc}{\contentsline {subsubsection}{\numberline {5.12.2.10}Set\discretionary {\unhbox \voidb@x \hbox {\relax \fontsize  {7}{8}\selectfont  $\leftarrow \joinrel  \rhook $}}{}{}Container\discretionary {\unhbox \voidb@x \hbox {\relax \fontsize  {7}{8}\selectfont  $\leftarrow \joinrel  \rhook $}}{}{}Max()}{31}}
\newlabel{class_equipment_a2458ed723310d5be3c25e99176e89903}{{5.12.2.10}{31}}
\@writefile{toc}{\contentsline {subsubsection}{\numberline {5.12.2.11}Set\discretionary {\unhbox \voidb@x \hbox {\relax \fontsize  {7}{8}\selectfont  $\leftarrow \joinrel  \rhook $}}{}{}Container\discretionary {\unhbox \voidb@x \hbox {\relax \fontsize  {7}{8}\selectfont  $\leftarrow \joinrel  \rhook $}}{}{}Measurement()}{31}}
\gdef \LT@xxv {\LT@entry 
    {3}{27.29875pt}\LT@entry 
    {3}{69.31497pt}}
\gdef \LT@xxvi {\LT@entry 
    {3}{33.8057pt}\LT@entry 
    {3}{53.78133pt}}
\newlabel{class_equipment_a94dfd710ec7b89249de24ad42e67d089}{{5.12.2.11}{32}}
\@writefile{toc}{\contentsline {subsubsection}{\numberline {5.12.2.12}Set\discretionary {\unhbox \voidb@x \hbox {\relax \fontsize  {7}{8}\selectfont  $\leftarrow \joinrel  \rhook $}}{}{}Container\discretionary {\unhbox \voidb@x \hbox {\relax \fontsize  {7}{8}\selectfont  $\leftarrow \joinrel  \rhook $}}{}{}Min()}{32}}
\newlabel{class_equipment_ab0fa641f717003ca138f3879104d8d52}{{5.12.2.12}{32}}
\@writefile{toc}{\contentsline {subsubsection}{\numberline {5.12.2.13}Set\discretionary {\unhbox \voidb@x \hbox {\relax \fontsize  {7}{8}\selectfont  $\leftarrow \joinrel  \rhook $}}{}{}Sprite\discretionary {\unhbox \voidb@x \hbox {\relax \fontsize  {7}{8}\selectfont  $\leftarrow \joinrel  \rhook $}}{}{}Scale()}{32}}
\@writefile{toc}{\contentsline {section}{\numberline {5.13}Equipment\discretionary {\unhbox \voidb@x \hbox {\relax \fontsize  {7}{8}\selectfont  $\leftarrow \joinrel  \rhook $}}{}{}Menu Class Reference}{32}}
\newlabel{class_equipment_menu}{{5.13}{32}}
\gdef \LT@xxvii {\LT@entry 
    {3}{29.80064pt}\LT@entry 
    {3}{85.47849pt}}
\newlabel{class_equipment_menu_ab74a983aa0487a5b94e635a71469c549}{{5.13}{33}}
\@writefile{toc}{\contentsline {subsection}{\numberline {5.13.1}Detailed Description}{33}}
\@writefile{toc}{\contentsline {section}{\numberline {5.14}Equipment\discretionary {\unhbox \voidb@x \hbox {\relax \fontsize  {7}{8}\selectfont  $\leftarrow \joinrel  \rhook $}}{}{}Panel\discretionary {\unhbox \voidb@x \hbox {\relax \fontsize  {7}{8}\selectfont  $\leftarrow \joinrel  \rhook $}}{}{}Content Class Reference}{33}}
\newlabel{class_equipment_panel_content}{{5.14}{33}}
\newlabel{class_equipment_panel_content_ace35bea7fa650dffa24ae76323f866b9}{{5.14}{33}}
\newlabel{class_equipment_panel_content_a9a3b2638dfc4c31f912e884c75833a4f}{{5.14}{33}}
\@writefile{toc}{\contentsline {subsection}{\numberline {5.14.1}Detailed Description}{33}}
\@writefile{toc}{\contentsline {subsection}{\numberline {5.14.2}Member Function Documentation}{33}}
\newlabel{class_equipment_panel_content_ae7e83d855c0d69cafd77214636eb8b0f}{{5.14.2}{33}}
\@writefile{toc}{\contentsline {subsubsection}{\numberline {5.14.2.1}Configure\discretionary {\unhbox \voidb@x \hbox {\relax \fontsize  {7}{8}\selectfont  $\leftarrow \joinrel  \rhook $}}{}{}Panel()}{33}}
\@writefile{toc}{\contentsline {section}{\numberline {5.15}Equipment\discretionary {\unhbox \voidb@x \hbox {\relax \fontsize  {7}{8}\selectfont  $\leftarrow \joinrel  \rhook $}}{}{}Panel\discretionary {\unhbox \voidb@x \hbox {\relax \fontsize  {7}{8}\selectfont  $\leftarrow \joinrel  \rhook $}}{}{}Toggle Class Reference}{34}}
\newlabel{class_equipment_panel_toggle}{{5.15}{34}}
\newlabel{class_equipment_panel_toggle_ae0d5a9a9311525af7175220f501942f7}{{5.15}{34}}
\@writefile{toc}{\contentsline {subsection}{\numberline {5.15.1}Detailed Description}{34}}
\@writefile{toc}{\contentsline {subsection}{\numberline {5.15.2}Member Function Documentation}{34}}
\newlabel{class_equipment_panel_toggle_ad6da102312cf646fe78255ae8600cc2f}{{5.15.2}{34}}
\@writefile{toc}{\contentsline {subsubsection}{\numberline {5.15.2.1}is\discretionary {\unhbox \voidb@x \hbox {\relax \fontsize  {7}{8}\selectfont  $\leftarrow \joinrel  \rhook $}}{}{}Visible()}{34}}
\gdef \LT@xxviii {\LT@entry 
    {3}{77.31978pt}\LT@entry 
    {3}{137.82133pt}}
\@writefile{toc}{\contentsline {section}{\numberline {5.16}Assets.\discretionary {\unhbox \voidb@x \hbox {\relax \fontsize  {7}{8}\selectfont  $\leftarrow \joinrel  \rhook $}}{}{}Custom\discretionary {\unhbox \voidb@x \hbox {\relax \fontsize  {7}{8}\selectfont  $\leftarrow \joinrel  \rhook $}}{}{}Assets.\discretionary {\unhbox \voidb@x \hbox {\relax \fontsize  {7}{8}\selectfont  $\leftarrow \joinrel  \rhook $}}{}{}Scripts.\discretionary {\unhbox \voidb@x \hbox {\relax \fontsize  {7}{8}\selectfont  $\leftarrow \joinrel  \rhook $}}{}{}Manual.\discretionary {\unhbox \voidb@x \hbox {\relax \fontsize  {7}{8}\selectfont  $\leftarrow \joinrel  \rhook $}}{}{}Image\discretionary {\unhbox \voidb@x \hbox {\relax \fontsize  {7}{8}\selectfont  $\leftarrow \joinrel  \rhook $}}{}{}Element Class Reference}{35}}
\newlabel{class_assets_1_1_custom_assets_1_1_scripts_1_1_manual_1_1_image_element}{{5.16}{35}}
\newlabel{class_assets_1_1_custom_assets_1_1_scripts_1_1_manual_1_1_image_element_a2b9943bd9df42ecfa493d9505c8a3bcf}{{5.16}{35}}
\@writefile{toc}{\contentsline {subsection}{\numberline {5.16.1}Detailed Description}{35}}
\@writefile{toc}{\contentsline {subsection}{\numberline {5.16.2}Constructor \& Destructor Documentation}{35}}
\newlabel{class_assets_1_1_custom_assets_1_1_scripts_1_1_manual_1_1_image_element_a7b285f0ffb524efef22084401d75add8}{{5.16.2}{35}}
\@writefile{toc}{\contentsline {subsubsection}{\numberline {5.16.2.1}Image\discretionary {\unhbox \voidb@x \hbox {\relax \fontsize  {7}{8}\selectfont  $\leftarrow \joinrel  \rhook $}}{}{}Element()}{35}}
\@writefile{toc}{\contentsline {subsection}{\numberline {5.16.3}Member Function Documentation}{36}}
\newlabel{class_assets_1_1_custom_assets_1_1_scripts_1_1_manual_1_1_image_element_a5349fa5f3d1785a3752649e305252977}{{5.16.3}{36}}
\@writefile{toc}{\contentsline {subsubsection}{\numberline {5.16.3.1}get\discretionary {\unhbox \voidb@x \hbox {\relax \fontsize  {7}{8}\selectfont  $\leftarrow \joinrel  \rhook $}}{}{}Image\discretionary {\unhbox \voidb@x \hbox {\relax \fontsize  {7}{8}\selectfont  $\leftarrow \joinrel  \rhook $}}{}{}Path()}{36}}
\newlabel{class_assets_1_1_custom_assets_1_1_scripts_1_1_manual_1_1_image_element_af99861231eaee69dc4d1c53f01f60892}{{5.16.3.1}{36}}
\@writefile{toc}{\contentsline {subsubsection}{\numberline {5.16.3.2}is\discretionary {\unhbox \voidb@x \hbox {\relax \fontsize  {7}{8}\selectfont  $\leftarrow \joinrel  \rhook $}}{}{}Center()}{36}}
\newlabel{class_assets_1_1_custom_assets_1_1_scripts_1_1_manual_1_1_image_element_a17c7afa92d8b8685b24d70a105b68793}{{5.16.3.2}{36}}
\@writefile{toc}{\contentsline {subsubsection}{\numberline {5.16.3.3}is\discretionary {\unhbox \voidb@x \hbox {\relax \fontsize  {7}{8}\selectfont  $\leftarrow \joinrel  \rhook $}}{}{}Left()}{37}}
\newlabel{class_assets_1_1_custom_assets_1_1_scripts_1_1_manual_1_1_image_element_a4d7851d6576e96d493d5e38e5abb79d4}{{5.16.3.3}{37}}
\@writefile{toc}{\contentsline {subsubsection}{\numberline {5.16.3.4}is\discretionary {\unhbox \voidb@x \hbox {\relax \fontsize  {7}{8}\selectfont  $\leftarrow \joinrel  \rhook $}}{}{}Right()}{37}}
\@writefile{toc}{\contentsline {section}{\numberline {5.17}Lab1\discretionary {\unhbox \voidb@x \hbox {\relax \fontsize  {7}{8}\selectfont  $\leftarrow \joinrel  \rhook $}}{}{}Reactor Class Reference}{37}}
\newlabel{class_lab1_reactor}{{5.17}{37}}
\newlabel{class_lab1_reactor_aadb9649ea7ec5d9badf7e59a295280e3}{{5.17}{37}}
\newlabel{class_lab1_reactor_aa27f3a444af8173d71d9528f720e6984}{{5.17}{38}}
\newlabel{class_lab1_reactor_af40a6ff205d2f49e7d1baa6b9f04d8b2}{{5.17}{38}}
\newlabel{class_lab1_reactor_af68cb2a0b6b9b739fe3411a7fdc9eaa8}{{5.17}{38}}
\newlabel{class_lab1_reactor_a2e222fda025e0a3603c7f4479b6fa315}{{5.17}{38}}
\@writefile{toc}{\contentsline {subsection}{\numberline {5.17.1}Detailed Description}{38}}
\@writefile{toc}{\contentsline {section}{\numberline {5.18}Lab\discretionary {\unhbox \voidb@x \hbox {\relax \fontsize  {7}{8}\selectfont  $\leftarrow \joinrel  \rhook $}}{}{}Manager Class Reference}{38}}
\newlabel{class_lab_manager}{{5.18}{38}}
\@writefile{toc}{\contentsline {subsection}{\numberline {5.18.1}Detailed Description}{38}}
\@writefile{toc}{\contentsline {subsection}{\numberline {5.18.2}Member Function Documentation}{39}}
\newlabel{class_lab_manager_aa62c6ddd9b6d52040ce93d827cb24f3b}{{5.18.2}{39}}
\@writefile{toc}{\contentsline {subsubsection}{\numberline {5.18.2.1}get\discretionary {\unhbox \voidb@x \hbox {\relax \fontsize  {7}{8}\selectfont  $\leftarrow \joinrel  \rhook $}}{}{}Equipment\discretionary {\unhbox \voidb@x \hbox {\relax \fontsize  {7}{8}\selectfont  $\leftarrow \joinrel  \rhook $}}{}{}List()}{39}}
\newlabel{class_lab_manager_a3abb75a5df19900177e12d654de53e8c}{{5.18.2.1}{39}}
\@writefile{toc}{\contentsline {subsubsection}{\numberline {5.18.2.2}get\discretionary {\unhbox \voidb@x \hbox {\relax \fontsize  {7}{8}\selectfont  $\leftarrow \joinrel  \rhook $}}{}{}Lab\discretionary {\unhbox \voidb@x \hbox {\relax \fontsize  {7}{8}\selectfont  $\leftarrow \joinrel  \rhook $}}{}{}Manager\discretionary {\unhbox \voidb@x \hbox {\relax \fontsize  {7}{8}\selectfont  $\leftarrow \joinrel  \rhook $}}{}{}G\discretionary {\unhbox \voidb@x \hbox {\relax \fontsize  {7}{8}\selectfont  $\leftarrow \joinrel  \rhook $}}{}{}O()}{39}}
\newlabel{class_lab_manager_a491346b5cb44e1cb2050645ce005cd35}{{5.18.2.2}{39}}
\@writefile{toc}{\contentsline {subsubsection}{\numberline {5.18.2.3}get\discretionary {\unhbox \voidb@x \hbox {\relax \fontsize  {7}{8}\selectfont  $\leftarrow \joinrel  \rhook $}}{}{}Manaul\discretionary {\unhbox \voidb@x \hbox {\relax \fontsize  {7}{8}\selectfont  $\leftarrow \joinrel  \rhook $}}{}{}Elements()}{39}}
\newlabel{class_lab_manager_aa71a037f3ba65733773add4eae8f0331}{{5.18.2.3}{39}}
\@writefile{toc}{\contentsline {subsubsection}{\numberline {5.18.2.4}get\discretionary {\unhbox \voidb@x \hbox {\relax \fontsize  {7}{8}\selectfont  $\leftarrow \joinrel  \rhook $}}{}{}Material\discretionary {\unhbox \voidb@x \hbox {\relax \fontsize  {7}{8}\selectfont  $\leftarrow \joinrel  \rhook $}}{}{}List()}{40}}
\@writefile{toc}{\contentsline {section}{\numberline {5.19}Assets.\discretionary {\unhbox \voidb@x \hbox {\relax \fontsize  {7}{8}\selectfont  $\leftarrow \joinrel  \rhook $}}{}{}Custom\discretionary {\unhbox \voidb@x \hbox {\relax \fontsize  {7}{8}\selectfont  $\leftarrow \joinrel  \rhook $}}{}{}Assets.\discretionary {\unhbox \voidb@x \hbox {\relax \fontsize  {7}{8}\selectfont  $\leftarrow \joinrel  \rhook $}}{}{}Scripts.\discretionary {\unhbox \voidb@x \hbox {\relax \fontsize  {7}{8}\selectfont  $\leftarrow \joinrel  \rhook $}}{}{}Manual.\discretionary {\unhbox \voidb@x \hbox {\relax \fontsize  {7}{8}\selectfont  $\leftarrow \joinrel  \rhook $}}{}{}List\discretionary {\unhbox \voidb@x \hbox {\relax \fontsize  {7}{8}\selectfont  $\leftarrow \joinrel  \rhook $}}{}{}Element Class Reference}{40}}
\newlabel{class_assets_1_1_custom_assets_1_1_scripts_1_1_manual_1_1_list_element}{{5.19}{40}}
\@writefile{toc}{\contentsline {subsection}{\numberline {5.19.1}Detailed Description}{40}}
\@writefile{toc}{\contentsline {subsection}{\numberline {5.19.2}Constructor \& Destructor Documentation}{40}}
\newlabel{class_assets_1_1_custom_assets_1_1_scripts_1_1_manual_1_1_list_element_a738627179de95c35fb7b783ea215f7bf}{{5.19.2}{40}}
\@writefile{toc}{\contentsline {subsubsection}{\numberline {5.19.2.1}List\discretionary {\unhbox \voidb@x \hbox {\relax \fontsize  {7}{8}\selectfont  $\leftarrow \joinrel  \rhook $}}{}{}Element()}{40}}
\gdef \LT@xxix {\LT@entry 
    {3}{44.30843pt}\LT@entry 
    {3}{64.77898pt}}
\@writefile{toc}{\contentsline {subsection}{\numberline {5.19.3}Member Function Documentation}{41}}
\newlabel{class_assets_1_1_custom_assets_1_1_scripts_1_1_manual_1_1_list_element_a10d409923a88ccf8bfe63d0305fa6dbb}{{5.19.3}{41}}
\@writefile{toc}{\contentsline {subsubsection}{\numberline {5.19.3.1}get\discretionary {\unhbox \voidb@x \hbox {\relax \fontsize  {7}{8}\selectfont  $\leftarrow \joinrel  \rhook $}}{}{}Children()}{41}}
\newlabel{class_assets_1_1_custom_assets_1_1_scripts_1_1_manual_1_1_list_element_a6fd198577b8092ff867a4452a350b7f7}{{5.19.3.1}{41}}
\@writefile{toc}{\contentsline {subsubsection}{\numberline {5.19.3.2}get\discretionary {\unhbox \voidb@x \hbox {\relax \fontsize  {7}{8}\selectfont  $\leftarrow \joinrel  \rhook $}}{}{}List\discretionary {\unhbox \voidb@x \hbox {\relax \fontsize  {7}{8}\selectfont  $\leftarrow \joinrel  \rhook $}}{}{}Size()}{41}}
\newlabel{class_assets_1_1_custom_assets_1_1_scripts_1_1_manual_1_1_list_element_a01ee5a8ef2814f6d82a5fd4c77f485ee}{{5.19.3.2}{41}}
\@writefile{toc}{\contentsline {subsubsection}{\numberline {5.19.3.3}is\discretionary {\unhbox \voidb@x \hbox {\relax \fontsize  {7}{8}\selectfont  $\leftarrow \joinrel  \rhook $}}{}{}Alpha()}{42}}
\newlabel{class_assets_1_1_custom_assets_1_1_scripts_1_1_manual_1_1_list_element_a1eb4b17791df5685b5766e6f35c0c423}{{5.19.3.3}{42}}
\@writefile{toc}{\contentsline {subsubsection}{\numberline {5.19.3.4}is\discretionary {\unhbox \voidb@x \hbox {\relax \fontsize  {7}{8}\selectfont  $\leftarrow \joinrel  \rhook $}}{}{}Bullet()}{42}}
\newlabel{class_assets_1_1_custom_assets_1_1_scripts_1_1_manual_1_1_list_element_a791c9e8748031e29ab2c20453aad0d22}{{5.19.3.4}{42}}
\@writefile{toc}{\contentsline {subsubsection}{\numberline {5.19.3.5}is\discretionary {\unhbox \voidb@x \hbox {\relax \fontsize  {7}{8}\selectfont  $\leftarrow \joinrel  \rhook $}}{}{}Number()}{42}}
\@writefile{toc}{\contentsline {section}{\numberline {5.20}Assets.\discretionary {\unhbox \voidb@x \hbox {\relax \fontsize  {7}{8}\selectfont  $\leftarrow \joinrel  \rhook $}}{}{}Custom\discretionary {\unhbox \voidb@x \hbox {\relax \fontsize  {7}{8}\selectfont  $\leftarrow \joinrel  \rhook $}}{}{}Assets.\discretionary {\unhbox \voidb@x \hbox {\relax \fontsize  {7}{8}\selectfont  $\leftarrow \joinrel  \rhook $}}{}{}Scripts.\discretionary {\unhbox \voidb@x \hbox {\relax \fontsize  {7}{8}\selectfont  $\leftarrow \joinrel  \rhook $}}{}{}Manual.\discretionary {\unhbox \voidb@x \hbox {\relax \fontsize  {7}{8}\selectfont  $\leftarrow \joinrel  \rhook $}}{}{}Manual\discretionary {\unhbox \voidb@x \hbox {\relax \fontsize  {7}{8}\selectfont  $\leftarrow \joinrel  \rhook $}}{}{}Element Class Reference}{43}}
\newlabel{class_assets_1_1_custom_assets_1_1_scripts_1_1_manual_1_1_manual_element}{{5.20}{43}}
\newlabel{class_assets_1_1_custom_assets_1_1_scripts_1_1_manual_1_1_manual_element_a852e65e2e409be73583af4d0464efbad}{{5.20}{43}}
\newlabel{class_assets_1_1_custom_assets_1_1_scripts_1_1_manual_1_1_manual_element_af6834ce8163819f1036da55fa1a72ae7}{{5.20}{43}}
\newlabel{class_assets_1_1_custom_assets_1_1_scripts_1_1_manual_1_1_manual_element_a36ad78dbf237572fe3a0a9213fb5d3d7}{{5.20}{43}}
\newlabel{class_assets_1_1_custom_assets_1_1_scripts_1_1_manual_1_1_manual_element_a11afb997f6bf99a16c52da1b638742d0}{{5.20}{43}}
\newlabel{class_assets_1_1_custom_assets_1_1_scripts_1_1_manual_1_1_manual_element_a9a80975492e80120e16758a2939ccb0e}{{5.20}{43}}
\@writefile{toc}{\contentsline {subsection}{\numberline {5.20.1}Detailed Description}{43}}
\@writefile{toc}{\contentsline {subsection}{\numberline {5.20.2}Member Function Documentation}{43}}
\newlabel{class_assets_1_1_custom_assets_1_1_scripts_1_1_manual_1_1_manual_element_af0a4684023952b8a3197faaaaf0b4f6f}{{5.20.2}{43}}
\@writefile{toc}{\contentsline {subsubsection}{\numberline {5.20.2.1}get\discretionary {\unhbox \voidb@x \hbox {\relax \fontsize  {7}{8}\selectfont  $\leftarrow \joinrel  \rhook $}}{}{}Tag()}{43}}
\newlabel{class_assets_1_1_custom_assets_1_1_scripts_1_1_manual_1_1_manual_element_a4d819dfa80cc0ad354d836b70a35e363}{{5.20.2.1}{43}}
\gdef \LT@xxx {\LT@entry 
    {3}{43.30933pt}\LT@entry 
    {3}{76.55952pt}}
\gdef \LT@xxxi {\LT@entry 
    {3}{42.80539pt}\LT@entry 
    {3}{76.05559pt}}
\@writefile{toc}{\contentsline {subsubsection}{\numberline {5.20.2.2}identify\discretionary {\unhbox \voidb@x \hbox {\relax \fontsize  {7}{8}\selectfont  $\leftarrow \joinrel  \rhook $}}{}{}Image\discretionary {\unhbox \voidb@x \hbox {\relax \fontsize  {7}{8}\selectfont  $\leftarrow \joinrel  \rhook $}}{}{}Align()}{44}}
\newlabel{class_assets_1_1_custom_assets_1_1_scripts_1_1_manual_1_1_manual_element_a319905c00f6b335f6028807106a7d980}{{5.20.2.2}{44}}
\@writefile{toc}{\contentsline {subsubsection}{\numberline {5.20.2.3}identify\discretionary {\unhbox \voidb@x \hbox {\relax \fontsize  {7}{8}\selectfont  $\leftarrow \joinrel  \rhook $}}{}{}List\discretionary {\unhbox \voidb@x \hbox {\relax \fontsize  {7}{8}\selectfont  $\leftarrow \joinrel  \rhook $}}{}{}Style()}{44}}
\gdef \LT@xxxii {\LT@entry 
    {3}{36.8114pt}\LT@entry 
    {3}{70.0616pt}}
\gdef \LT@xxxiii {\LT@entry 
    {3}{42.80539pt}\LT@entry 
    {3}{76.05559pt}}
\newlabel{class_assets_1_1_custom_assets_1_1_scripts_1_1_manual_1_1_manual_element_a12b207dadf2841c95f0e57fe917e60ec}{{5.20.2.3}{45}}
\@writefile{toc}{\contentsline {subsubsection}{\numberline {5.20.2.4}identify\discretionary {\unhbox \voidb@x \hbox {\relax \fontsize  {7}{8}\selectfont  $\leftarrow \joinrel  \rhook $}}{}{}Tag()}{45}}
\newlabel{class_assets_1_1_custom_assets_1_1_scripts_1_1_manual_1_1_manual_element_a136328732ce096c2332c1c236079e2ae}{{5.20.2.4}{45}}
\@writefile{toc}{\contentsline {subsubsection}{\numberline {5.20.2.5}identify\discretionary {\unhbox \voidb@x \hbox {\relax \fontsize  {7}{8}\selectfont  $\leftarrow \joinrel  \rhook $}}{}{}Text\discretionary {\unhbox \voidb@x \hbox {\relax \fontsize  {7}{8}\selectfont  $\leftarrow \joinrel  \rhook $}}{}{}Style()}{45}}
\@writefile{toc}{\contentsline {section}{\numberline {5.21}Assets.\discretionary {\unhbox \voidb@x \hbox {\relax \fontsize  {7}{8}\selectfont  $\leftarrow \joinrel  \rhook $}}{}{}Custom\discretionary {\unhbox \voidb@x \hbox {\relax \fontsize  {7}{8}\selectfont  $\leftarrow \joinrel  \rhook $}}{}{}Assets.\discretionary {\unhbox \voidb@x \hbox {\relax \fontsize  {7}{8}\selectfont  $\leftarrow \joinrel  \rhook $}}{}{}Scripts.\discretionary {\unhbox \voidb@x \hbox {\relax \fontsize  {7}{8}\selectfont  $\leftarrow \joinrel  \rhook $}}{}{}Parsers.\discretionary {\unhbox \voidb@x \hbox {\relax \fontsize  {7}{8}\selectfont  $\leftarrow \joinrel  \rhook $}}{}{}Manual\discretionary {\unhbox \voidb@x \hbox {\relax \fontsize  {7}{8}\selectfont  $\leftarrow \joinrel  \rhook $}}{}{}Parser Class Reference}{46}}
\newlabel{class_assets_1_1_custom_assets_1_1_scripts_1_1_parsers_1_1_manual_parser}{{5.21}{46}}
\@writefile{toc}{\contentsline {subsection}{\numberline {5.21.1}Detailed Description}{46}}
\@writefile{toc}{\contentsline {subsection}{\numberline {5.21.2}Member Function Documentation}{46}}
\newlabel{class_assets_1_1_custom_assets_1_1_scripts_1_1_parsers_1_1_manual_parser_ad2fe19c0094303d27498fd1f5ac4bc60}{{5.21.2}{46}}
\@writefile{toc}{\contentsline {subsubsection}{\numberline {5.21.2.1}get\discretionary {\unhbox \voidb@x \hbox {\relax \fontsize  {7}{8}\selectfont  $\leftarrow \joinrel  \rhook $}}{}{}Manual()}{46}}
\gdef \LT@xxxiv {\LT@entry 
    {3}{44.94748pt}\LT@entry 
    {3}{131.81845pt}}
\newlabel{class_assets_1_1_custom_assets_1_1_scripts_1_1_parsers_1_1_manual_parser_a938a91f84c7f24cf0899f80ef6ed8370}{{5.21.2.1}{47}}
\@writefile{toc}{\contentsline {subsubsection}{\numberline {5.21.2.2}parameterized\discretionary {\unhbox \voidb@x \hbox {\relax \fontsize  {7}{8}\selectfont  $\leftarrow \joinrel  \rhook $}}{}{}Xpath()}{47}}
\gdef \LT@xxxv {\LT@entry 
    {3}{65.36815pt}\LT@entry 
    {3}{141.69112pt}}
\@writefile{toc}{\contentsline {section}{\numberline {5.22}Material Class Reference}{48}}
\newlabel{class_material}{{5.22}{48}}
\newlabel{class_material_a4b20dac841bdc10ea921c0f21914ee70}{{5.22}{48}}
\newlabel{class_material_aa4899ffde1453b9ff9288302a9c2e0c9}{{5.22}{48}}
\newlabel{class_material_a208a206952d8d70cdbf631b73720c1a6}{{5.22}{48}}
\newlabel{class_material_adb22a328bc58f05ba6743f658a89e2b1}{{5.22}{48}}
\gdef \LT@xxxvi {\LT@entry 
    {3}{61.3181pt}\LT@entry 
    {3}{81.93259pt}}
\newlabel{class_material_a1933627659809686583600fe7893bb98}{{5.22}{49}}
\newlabel{class_material_a893ddee6f03d61dde923452065a42093}{{5.22}{49}}
\newlabel{class_material_a112d8aac335a4af1937b8a6194ffae71}{{5.22}{49}}
\newlabel{class_material_a829a94ddf70cecf0d78b54a5fbc5c965}{{5.22}{49}}
\newlabel{class_material_ad36a61afa5efe37ef3c163a3f22f26c7}{{5.22}{49}}
\newlabel{class_material_acce33437b8c8e87123653a8512a93003}{{5.22}{49}}
\newlabel{class_material_a883a5fb1a58be55d60571db23e75577d}{{5.22}{49}}
\newlabel{class_material_ab93f2a06e1bbd217992efe8f83fed9fe}{{5.22}{49}}
\newlabel{class_material_a225844218e653d99f296e2e2bd967505}{{5.22}{49}}
\newlabel{class_material_af20fd18eb86a5ad75a36a8ad24482427}{{5.22}{49}}
\newlabel{class_material_a521055076a1c7c5bcabb324d0fd9ebd3}{{5.22}{49}}
\newlabel{class_material_a102d882c8d46b24a329d671372bf264a}{{5.22}{49}}
\@writefile{toc}{\contentsline {subsection}{\numberline {5.22.1}Detailed Description}{49}}
\@writefile{toc}{\contentsline {subsection}{\numberline {5.22.2}Member Function Documentation}{49}}
\newlabel{class_material_a1edd6845fa95dd968dbf76331c52b60f}{{5.22.2}{49}}
\@writefile{toc}{\contentsline {subsubsection}{\numberline {5.22.2.1}add\discretionary {\unhbox \voidb@x \hbox {\relax \fontsize  {7}{8}\selectfont  $\leftarrow \joinrel  \rhook $}}{}{}To\discretionary {\unhbox \voidb@x \hbox {\relax \fontsize  {7}{8}\selectfont  $\leftarrow \joinrel  \rhook $}}{}{}Game\discretionary {\unhbox \voidb@x \hbox {\relax \fontsize  {7}{8}\selectfont  $\leftarrow \joinrel  \rhook $}}{}{}Object()}{49}}
\newlabel{class_material_a2101be0b90f765ed5caf2e6d73ed6877}{{5.22.2.1}{49}}
\@writefile{toc}{\contentsline {subsubsection}{\numberline {5.22.2.2}get\discretionary {\unhbox \voidb@x \hbox {\relax \fontsize  {7}{8}\selectfont  $\leftarrow \joinrel  \rhook $}}{}{}Config\discretionary {\unhbox \voidb@x \hbox {\relax \fontsize  {7}{8}\selectfont  $\leftarrow \joinrel  \rhook $}}{}{}Panel()}{49}}
\newlabel{class_material_ac27a6e346df28f14f1d300d626c3c6a6}{{5.22.2.2}{50}}
\@writefile{toc}{\contentsline {subsubsection}{\numberline {5.22.2.3}get\discretionary {\unhbox \voidb@x \hbox {\relax \fontsize  {7}{8}\selectfont  $\leftarrow \joinrel  \rhook $}}{}{}Material\discretionary {\unhbox \voidb@x \hbox {\relax \fontsize  {7}{8}\selectfont  $\leftarrow \joinrel  \rhook $}}{}{}Name()}{50}}
\newlabel{class_material_af79d46b3d0f3d56393c0a85c1fa48fbf}{{5.22.2.3}{50}}
\@writefile{toc}{\contentsline {subsubsection}{\numberline {5.22.2.4}get\discretionary {\unhbox \voidb@x \hbox {\relax \fontsize  {7}{8}\selectfont  $\leftarrow \joinrel  \rhook $}}{}{}Material\discretionary {\unhbox \voidb@x \hbox {\relax \fontsize  {7}{8}\selectfont  $\leftarrow \joinrel  \rhook $}}{}{}Sprite()}{50}}
\newlabel{class_material_a2308ae56b8a002771f2b394af1b51690}{{5.22.2.4}{50}}
\@writefile{toc}{\contentsline {subsubsection}{\numberline {5.22.2.5}get\discretionary {\unhbox \voidb@x \hbox {\relax \fontsize  {7}{8}\selectfont  $\leftarrow \joinrel  \rhook $}}{}{}Sprite\discretionary {\unhbox \voidb@x \hbox {\relax \fontsize  {7}{8}\selectfont  $\leftarrow \joinrel  \rhook $}}{}{}Scale()}{51}}
\@writefile{toc}{\contentsline {section}{\numberline {5.23}Material\discretionary {\unhbox \voidb@x \hbox {\relax \fontsize  {7}{8}\selectfont  $\leftarrow \joinrel  \rhook $}}{}{}Panel\discretionary {\unhbox \voidb@x \hbox {\relax \fontsize  {7}{8}\selectfont  $\leftarrow \joinrel  \rhook $}}{}{}Content Class Reference}{51}}
\newlabel{class_material_panel_content}{{5.23}{51}}
\newlabel{class_material_panel_content_a2276a72a873d42cf54cdd569c1e49409}{{5.23}{51}}
\@writefile{toc}{\contentsline {subsection}{\numberline {5.23.1}Detailed Description}{51}}
\@writefile{toc}{\contentsline {subsection}{\numberline {5.23.2}Member Function Documentation}{51}}
\newlabel{class_material_panel_content_a722d10f536b3a699f2859c0f41c95bf6}{{5.23.2}{51}}
\@writefile{toc}{\contentsline {subsubsection}{\numberline {5.23.2.1}Configure\discretionary {\unhbox \voidb@x \hbox {\relax \fontsize  {7}{8}\selectfont  $\leftarrow \joinrel  \rhook $}}{}{}Panel()}{51}}
\gdef \LT@xxxvii {\LT@entry 
    {3}{29.80064pt}\LT@entry 
    {3}{85.47849pt}}
\@writefile{toc}{\contentsline {section}{\numberline {5.24}Material\discretionary {\unhbox \voidb@x \hbox {\relax \fontsize  {7}{8}\selectfont  $\leftarrow \joinrel  \rhook $}}{}{}Panel\discretionary {\unhbox \voidb@x \hbox {\relax \fontsize  {7}{8}\selectfont  $\leftarrow \joinrel  \rhook $}}{}{}Toggle Class Reference}{52}}
\newlabel{class_material_panel_toggle}{{5.24}{52}}
\newlabel{class_material_panel_toggle_aec1257a72cdda0b76fb78d19548c2428}{{5.24}{52}}
\@writefile{toc}{\contentsline {subsection}{\numberline {5.24.1}Detailed Description}{52}}
\@writefile{toc}{\contentsline {subsection}{\numberline {5.24.2}Member Function Documentation}{53}}
\newlabel{class_material_panel_toggle_a183530c76ca2c782724ef71ad4797c47}{{5.24.2}{53}}
\@writefile{toc}{\contentsline {subsubsection}{\numberline {5.24.2.1}is\discretionary {\unhbox \voidb@x \hbox {\relax \fontsize  {7}{8}\selectfont  $\leftarrow \joinrel  \rhook $}}{}{}Visible()}{53}}
\@writefile{toc}{\contentsline {section}{\numberline {5.25}Pair$<$ T1, T2 $>$ Class Template Reference}{53}}
\newlabel{class_pair}{{5.25}{53}}
\newlabel{class_pair_a54d5d483d57b411f73eb884708657ba0}{{5.25}{53}}
\newlabel{class_pair_aac49458ed0d43cce37250213e13919da}{{5.25}{53}}
\newlabel{class_pair_ae31035dbf95584a8bcbd200baeb81e30}{{5.25}{53}}
\@writefile{toc}{\contentsline {subsection}{\numberline {5.25.1}Detailed Description}{53}}
\@writefile{toc}{\contentsline {section}{\numberline {5.26}P\discretionary {\unhbox \voidb@x \hbox {\relax \fontsize  {7}{8}\selectfont  $\leftarrow \joinrel  \rhook $}}{}{}Nitrophenol Class Reference}{53}}
\newlabel{class_p_nitrophenol}{{5.26}{53}}
\gdef \LT@xxxviii {\LT@entry 
    {3}{105.33624pt}\LT@entry 
    {3}{126.45467pt}}
\newlabel{class_p_nitrophenol_a721487bee8ce3ca6e92095ea4f45858c}{{5.26}{54}}
\newlabel{class_p_nitrophenol_a3f5b6acea51cf26be1f3a8a3f0cfb06b}{{5.26}{54}}
\newlabel{class_p_nitrophenol_a1b80d6dae557404001184e07ed665147}{{5.26}{54}}
\newlabel{class_p_nitrophenol_a2eca74525e7d9e50e1771ad9487bd948}{{5.26}{54}}
\newlabel{class_p_nitrophenol_a60f5c91655e6ed0ccdbce6ca1c87599d}{{5.26}{54}}
\@writefile{toc}{\contentsline {subsection}{\numberline {5.26.1}Detailed Description}{54}}
\@writefile{toc}{\contentsline {subsection}{\numberline {5.26.2}Member Function Documentation}{54}}
\newlabel{class_p_nitrophenol_a48f3b5e06d0bc39421c593fb5b7851c4}{{5.26.2}{54}}
\@writefile{toc}{\contentsline {subsubsection}{\numberline {5.26.2.1}add\discretionary {\unhbox \voidb@x \hbox {\relax \fontsize  {7}{8}\selectfont  $\leftarrow \joinrel  \rhook $}}{}{}To\discretionary {\unhbox \voidb@x \hbox {\relax \fontsize  {7}{8}\selectfont  $\leftarrow \joinrel  \rhook $}}{}{}Game\discretionary {\unhbox \voidb@x \hbox {\relax \fontsize  {7}{8}\selectfont  $\leftarrow \joinrel  \rhook $}}{}{}Object()}{54}}
\gdef \LT@xxxix {\LT@entry 
    {3}{105.33624pt}\LT@entry 
    {3}{126.45467pt}}
\@writefile{toc}{\contentsline {section}{\numberline {5.27}P\discretionary {\unhbox \voidb@x \hbox {\relax \fontsize  {7}{8}\selectfont  $\leftarrow \joinrel  \rhook $}}{}{}Nitrophenyl\discretionary {\unhbox \voidb@x \hbox {\relax \fontsize  {7}{8}\selectfont  $\leftarrow \joinrel  \rhook $}}{}{}Phosphate Class Reference}{55}}
\newlabel{class_p_nitrophenyl_phosphate}{{5.27}{55}}
\newlabel{class_p_nitrophenyl_phosphate_ae3ddaad97e989f482add59a06f5f2f9e}{{5.27}{55}}
\newlabel{class_p_nitrophenyl_phosphate_a17f404e8be833eea9b0f2dfe32e56f7a}{{5.27}{55}}
\newlabel{class_p_nitrophenyl_phosphate_a41b8e66ee9a6fbd19a7d979d974ba370}{{5.27}{55}}
\newlabel{class_p_nitrophenyl_phosphate_a7663e065cb4df487c05d1d3f0b2ca4d5}{{5.27}{55}}
\@writefile{toc}{\contentsline {subsection}{\numberline {5.27.1}Detailed Description}{55}}
\@writefile{toc}{\contentsline {subsection}{\numberline {5.27.2}Member Function Documentation}{55}}
\newlabel{class_p_nitrophenyl_phosphate_a1c9d0e61f10011c64e9238a551c240fb}{{5.27.2}{55}}
\@writefile{toc}{\contentsline {subsubsection}{\numberline {5.27.2.1}add\discretionary {\unhbox \voidb@x \hbox {\relax \fontsize  {7}{8}\selectfont  $\leftarrow \joinrel  \rhook $}}{}{}To\discretionary {\unhbox \voidb@x \hbox {\relax \fontsize  {7}{8}\selectfont  $\leftarrow \joinrel  \rhook $}}{}{}Game\discretionary {\unhbox \voidb@x \hbox {\relax \fontsize  {7}{8}\selectfont  $\leftarrow \joinrel  \rhook $}}{}{}Object()}{55}}
\@writefile{toc}{\contentsline {section}{\numberline {5.28}Reactor Class Reference}{56}}
\newlabel{class_reactor}{{5.28}{56}}
\newlabel{class_reactor_a57b25fe1d01f18d26ff0443ae992fee5}{{5.28}{56}}
\newlabel{class_reactor_ad1c7260211f7c6a25b976eaeae525c79}{{5.28}{56}}
\newlabel{class_reactor_ae526b76427ac90b72f527f440dd32f5a}{{5.28}{56}}
\newlabel{class_reactor_ac09c970da457397f06d5a45dfca41282}{{5.28}{56}}
\@writefile{toc}{\contentsline {subsection}{\numberline {5.28.1}Detailed Description}{56}}
\@writefile{toc}{\contentsline {section}{\numberline {5.29}Scroll\discretionary {\unhbox \voidb@x \hbox {\relax \fontsize  {7}{8}\selectfont  $\leftarrow \joinrel  \rhook $}}{}{}Handle\discretionary {\unhbox \voidb@x \hbox {\relax \fontsize  {7}{8}\selectfont  $\leftarrow \joinrel  \rhook $}}{}{}Hover Class Reference}{56}}
\newlabel{class_scroll_handle_hover}{{5.29}{56}}
\gdef \LT@xl {\LT@entry 
    {3}{53.32625pt}\LT@entry 
    {3}{88.94331pt}}
\gdef \LT@xli {\LT@entry 
    {3}{53.32625pt}\LT@entry 
    {3}{88.94331pt}}
\newlabel{class_scroll_handle_hover_a0c202cec949974f157ee9b7acf7f4a09}{{5.29}{57}}
\newlabel{class_scroll_handle_hover_a7559af10330d237cf2ba26cb93f75825}{{5.29}{57}}
\@writefile{toc}{\contentsline {subsection}{\numberline {5.29.1}Detailed Description}{57}}
\@writefile{toc}{\contentsline {subsection}{\numberline {5.29.2}Member Function Documentation}{57}}
\newlabel{class_scroll_handle_hover_a23049f0f3acd5e9c162ccf387e8d67b1}{{5.29.2}{57}}
\@writefile{toc}{\contentsline {subsubsection}{\numberline {5.29.2.1}On\discretionary {\unhbox \voidb@x \hbox {\relax \fontsize  {7}{8}\selectfont  $\leftarrow \joinrel  \rhook $}}{}{}Pointer\discretionary {\unhbox \voidb@x \hbox {\relax \fontsize  {7}{8}\selectfont  $\leftarrow \joinrel  \rhook $}}{}{}Enter()}{57}}
\newlabel{class_scroll_handle_hover_a04c83c72d780ba2d3ed8eb679b74f691}{{5.29.2.1}{57}}
\@writefile{toc}{\contentsline {subsubsection}{\numberline {5.29.2.2}On\discretionary {\unhbox \voidb@x \hbox {\relax \fontsize  {7}{8}\selectfont  $\leftarrow \joinrel  \rhook $}}{}{}Pointer\discretionary {\unhbox \voidb@x \hbox {\relax \fontsize  {7}{8}\selectfont  $\leftarrow \joinrel  \rhook $}}{}{}Exit()}{57}}
\@writefile{toc}{\contentsline {section}{\numberline {5.30}Spectrophotometer Class Reference}{58}}
\newlabel{class_spectrophotometer}{{5.30}{58}}
\newlabel{class_spectrophotometer_a68eb4bc5a3d7884d4fb893ba83bc874a}{{5.30}{58}}
\newlabel{class_spectrophotometer_ae51b8914d56d672bc7c79e833200985d}{{5.30}{58}}
\newlabel{class_spectrophotometer_a6b7ebd87ac444875da7bd4fe1546e7b6}{{5.30}{58}}
\newlabel{class_spectrophotometer_ab7bd5fc148ad8b504f1cc07c502956f0}{{5.30}{58}}
\newlabel{class_spectrophotometer_a695d54666801aadaa4c8e2f0e30406db}{{5.30}{58}}
\newlabel{class_spectrophotometer_a6c8a95802c952ad43971c5e533577402}{{5.30}{58}}
\newlabel{class_spectrophotometer_a5715d180fab9a7eaf514f074ac68b3b3}{{5.30}{58}}
\@writefile{toc}{\contentsline {subsection}{\numberline {5.30.1}Detailed Description}{58}}
\@writefile{toc}{\contentsline {subsection}{\numberline {5.30.2}Member Function Documentation}{58}}
\newlabel{class_spectrophotometer_a3e1031acfa8e8853726ec5784812633c}{{5.30.2}{58}}
\@writefile{toc}{\contentsline {subsubsection}{\numberline {5.30.2.1}add\discretionary {\unhbox \voidb@x \hbox {\relax \fontsize  {7}{8}\selectfont  $\leftarrow \joinrel  \rhook $}}{}{}To\discretionary {\unhbox \voidb@x \hbox {\relax \fontsize  {7}{8}\selectfont  $\leftarrow \joinrel  \rhook $}}{}{}Game\discretionary {\unhbox \voidb@x \hbox {\relax \fontsize  {7}{8}\selectfont  $\leftarrow \joinrel  \rhook $}}{}{}Object()}{58}}
\gdef \LT@xlii {\LT@entry 
    {3}{105.33624pt}\LT@entry 
    {3}{126.45467pt}}
\gdef \LT@xliii {\LT@entry 
    {3}{41.59042pt}\LT@entry 
    {3}{61.56606pt}}
\newlabel{class_spectrophotometer_a0f7c5e2c700961088878ebc44dca3695}{{5.30.2.1}{59}}
\@writefile{toc}{\contentsline {subsubsection}{\numberline {5.30.2.2}assign\discretionary {\unhbox \voidb@x \hbox {\relax \fontsize  {7}{8}\selectfont  $\leftarrow \joinrel  \rhook $}}{}{}Cuvette()}{59}}
\newlabel{class_spectrophotometer_a06bde783392512f6d05352ccec449873}{{5.30.2.2}{59}}
\@writefile{toc}{\contentsline {subsubsection}{\numberline {5.30.2.3}is\discretionary {\unhbox \voidb@x \hbox {\relax \fontsize  {7}{8}\selectfont  $\leftarrow \joinrel  \rhook $}}{}{}Empty()}{59}}
\gdef \LT@xliv {\LT@entry 
    {3}{35.80365pt}\LT@entry 
    {3}{55.77928pt}}
\@writefile{toc}{\contentsline {section}{\numberline {5.31}Assets.\discretionary {\unhbox \voidb@x \hbox {\relax \fontsize  {7}{8}\selectfont  $\leftarrow \joinrel  \rhook $}}{}{}Custom\discretionary {\unhbox \voidb@x \hbox {\relax \fontsize  {7}{8}\selectfont  $\leftarrow \joinrel  \rhook $}}{}{}Assets.\discretionary {\unhbox \voidb@x \hbox {\relax \fontsize  {7}{8}\selectfont  $\leftarrow \joinrel  \rhook $}}{}{}Scripts.\discretionary {\unhbox \voidb@x \hbox {\relax \fontsize  {7}{8}\selectfont  $\leftarrow \joinrel  \rhook $}}{}{}Manual.\discretionary {\unhbox \voidb@x \hbox {\relax \fontsize  {7}{8}\selectfont  $\leftarrow \joinrel  \rhook $}}{}{}Text\discretionary {\unhbox \voidb@x \hbox {\relax \fontsize  {7}{8}\selectfont  $\leftarrow \joinrel  \rhook $}}{}{}Element Class Reference}{60}}
\newlabel{class_assets_1_1_custom_assets_1_1_scripts_1_1_manual_1_1_text_element}{{5.31}{60}}
\@writefile{toc}{\contentsline {subsection}{\numberline {5.31.1}Detailed Description}{60}}
\@writefile{toc}{\contentsline {subsection}{\numberline {5.31.2}Constructor \& Destructor Documentation}{60}}
\newlabel{class_assets_1_1_custom_assets_1_1_scripts_1_1_manual_1_1_text_element_a2387535e245e2ae9b6bebe06962eff4c}{{5.31.2}{60}}
\@writefile{toc}{\contentsline {subsubsection}{\numberline {5.31.2.1}Text\discretionary {\unhbox \voidb@x \hbox {\relax \fontsize  {7}{8}\selectfont  $\leftarrow \joinrel  \rhook $}}{}{}Element()}{60}}
\@writefile{toc}{\contentsline {subsection}{\numberline {5.31.3}Member Function Documentation}{61}}
\newlabel{class_assets_1_1_custom_assets_1_1_scripts_1_1_manual_1_1_text_element_a5cee84357bec5d07af51e1c81e95de38}{{5.31.3}{61}}
\@writefile{toc}{\contentsline {subsubsection}{\numberline {5.31.3.1}get\discretionary {\unhbox \voidb@x \hbox {\relax \fontsize  {7}{8}\selectfont  $\leftarrow \joinrel  \rhook $}}{}{}Text()}{61}}
\newlabel{class_assets_1_1_custom_assets_1_1_scripts_1_1_manual_1_1_text_element_ab5c9979b642fa01173aba3c9d5a0b06b}{{5.31.3.1}{61}}
\@writefile{toc}{\contentsline {subsubsection}{\numberline {5.31.3.2}is\discretionary {\unhbox \voidb@x \hbox {\relax \fontsize  {7}{8}\selectfont  $\leftarrow \joinrel  \rhook $}}{}{}Bold()}{61}}
\newlabel{class_assets_1_1_custom_assets_1_1_scripts_1_1_manual_1_1_text_element_a5e14b4bd8466eac04f3c5e72e63105a3}{{5.31.3.2}{61}}
\@writefile{toc}{\contentsline {subsubsection}{\numberline {5.31.3.3}is\discretionary {\unhbox \voidb@x \hbox {\relax \fontsize  {7}{8}\selectfont  $\leftarrow \joinrel  \rhook $}}{}{}H1()}{62}}
\newlabel{class_assets_1_1_custom_assets_1_1_scripts_1_1_manual_1_1_text_element_ae3163e980963f5e9bedef508aa15bca3}{{5.31.3.3}{62}}
\@writefile{toc}{\contentsline {subsubsection}{\numberline {5.31.3.4}is\discretionary {\unhbox \voidb@x \hbox {\relax \fontsize  {7}{8}\selectfont  $\leftarrow \joinrel  \rhook $}}{}{}P()}{62}}
\newlabel{class_assets_1_1_custom_assets_1_1_scripts_1_1_manual_1_1_text_element_a9882a67ca26156d535791a3f5c6bcf20}{{5.31.3.4}{62}}
\@writefile{toc}{\contentsline {subsubsection}{\numberline {5.31.3.5}is\discretionary {\unhbox \voidb@x \hbox {\relax \fontsize  {7}{8}\selectfont  $\leftarrow \joinrel  \rhook $}}{}{}Underline()}{62}}
\gdef \LT@xlv {\LT@entry 
    {3}{31.80762pt}\LT@entry 
    {3}{51.91817pt}}
\@writefile{toc}{\contentsline {section}{\numberline {5.32}Timer Class Reference}{63}}
\newlabel{class_timer}{{5.32}{63}}
\newlabel{class_timer_ade18514755dcebaa0a57e205e7a479cb}{{5.32}{63}}
\newlabel{class_timer_a4fb1a924fe8719bd6ca8cf715b834985}{{5.32}{63}}
\newlabel{class_timer_a0333f0c5020a559b09d4ba95b2e8ca92}{{5.32}{63}}
\@writefile{toc}{\contentsline {subsection}{\numberline {5.32.1}Detailed Description}{63}}
\@writefile{toc}{\contentsline {subsection}{\numberline {5.32.2}Member Function Documentation}{63}}
\newlabel{class_timer_a0b18ccb0f3018dda327fa5c23f65285c}{{5.32.2}{63}}
\@writefile{toc}{\contentsline {subsubsection}{\numberline {5.32.2.1}Set\discretionary {\unhbox \voidb@x \hbox {\relax \fontsize  {7}{8}\selectfont  $\leftarrow \joinrel  \rhook $}}{}{}Label()}{63}}
\@writefile{toc}{\contentsline {section}{\numberline {5.33}Tooltip Class Reference}{63}}
\newlabel{class_tooltip}{{5.33}{63}}
\gdef \LT@xlvi {\LT@entry 
    {3}{27.0377pt}\LT@entry 
    {3}{47.14825pt}}
\newlabel{class_tooltip_a647ef79a6ea6087cf8ecbd675895229f}{{5.33}{64}}
\@writefile{toc}{\contentsline {subsection}{\numberline {5.33.1}Detailed Description}{64}}
\@writefile{toc}{\contentsline {subsection}{\numberline {5.33.2}Member Function Documentation}{64}}
\newlabel{class_tooltip_a1361b83400462b1628dc7adb7db6e42b}{{5.33.2}{64}}
\@writefile{toc}{\contentsline {subsubsection}{\numberline {5.33.2.1}add\discretionary {\unhbox \voidb@x \hbox {\relax \fontsize  {7}{8}\selectfont  $\leftarrow \joinrel  \rhook $}}{}{}To\discretionary {\unhbox \voidb@x \hbox {\relax \fontsize  {7}{8}\selectfont  $\leftarrow \joinrel  \rhook $}}{}{}Tooltip()}{64}}
\@writefile{toc}{\contentsline {section}{\numberline {5.34}Trash\discretionary {\unhbox \voidb@x \hbox {\relax \fontsize  {7}{8}\selectfont  $\leftarrow \joinrel  \rhook $}}{}{}Script Class Reference}{64}}
\newlabel{class_trash_script}{{5.34}{64}}
\gdef \LT@xlvii {\LT@entry 
    {3}{26.80371pt}\LT@entry 
    {3}{42.55843pt}}
\@writefile{toc}{\contentsline {subsection}{\numberline {5.34.1}Detailed Description}{65}}
\@writefile{toc}{\contentsline {subsection}{\numberline {5.34.2}Member Function Documentation}{65}}
\newlabel{class_trash_script_a7e3a991fb65d81849ea296cbe9e6c98a}{{5.34.2}{65}}
\@writefile{toc}{\contentsline {subsubsection}{\numberline {5.34.2.1}Destroy\discretionary {\unhbox \voidb@x \hbox {\relax \fontsize  {7}{8}\selectfont  $\leftarrow \joinrel  \rhook $}}{}{}Equipment()}{65}}
\@writefile{toc}{\contentsline {section}{\numberline {5.35}Tris\discretionary {\unhbox \voidb@x \hbox {\relax \fontsize  {7}{8}\selectfont  $\leftarrow \joinrel  \rhook $}}{}{}H\discretionary {\unhbox \voidb@x \hbox {\relax \fontsize  {7}{8}\selectfont  $\leftarrow \joinrel  \rhook $}}{}{}Cl Class Reference}{65}}
\newlabel{class_tris_h_cl}{{5.35}{65}}
\newlabel{class_tris_h_cl_a965985deb799d66f7ea9ff30102c1b8e}{{5.35}{65}}
\newlabel{class_tris_h_cl_aa21e826c510d9d14c8f6c41465012bca}{{5.35}{65}}
\newlabel{class_tris_h_cl_ad00611a518dae983ff27204b23e00251}{{5.35}{65}}
\gdef \LT@xlviii {\LT@entry 
    {3}{105.33624pt}\LT@entry 
    {3}{126.45467pt}}
\newlabel{class_tris_h_cl_a3618f3b920ca0cc14082a26d8739ccc1}{{5.35}{66}}
\newlabel{class_tris_h_cl_a0929b8d78cacec384d530059fa59a1b0}{{5.35}{66}}
\newlabel{class_tris_h_cl_a5d8db34f565526b8218151a6242bef73}{{5.35}{66}}
\@writefile{toc}{\contentsline {subsection}{\numberline {5.35.1}Detailed Description}{66}}
\@writefile{toc}{\contentsline {subsection}{\numberline {5.35.2}Member Function Documentation}{66}}
\newlabel{class_tris_h_cl_abb83521f59b6b30f8bc62448fea30bba}{{5.35.2}{66}}
\@writefile{toc}{\contentsline {subsubsection}{\numberline {5.35.2.1}add\discretionary {\unhbox \voidb@x \hbox {\relax \fontsize  {7}{8}\selectfont  $\leftarrow \joinrel  \rhook $}}{}{}To\discretionary {\unhbox \voidb@x \hbox {\relax \fontsize  {7}{8}\selectfont  $\leftarrow \joinrel  \rhook $}}{}{}Game\discretionary {\unhbox \voidb@x \hbox {\relax \fontsize  {7}{8}\selectfont  $\leftarrow \joinrel  \rhook $}}{}{}Object()}{66}}
\@writefile{toc}{\contentsline {section}{\numberline {5.36}U\discretionary {\unhbox \voidb@x \hbox {\relax \fontsize  {7}{8}\selectfont  $\leftarrow \joinrel  \rhook $}}{}{}I\discretionary {\unhbox \voidb@x \hbox {\relax \fontsize  {7}{8}\selectfont  $\leftarrow \joinrel  \rhook $}}{}{}Controller Class Reference}{66}}
\newlabel{class_u_i_controller}{{5.36}{66}}
\newlabel{class_u_i_controller_a9a18abf82d169bb88ecf8673215c4232}{{5.36}{67}}
\newlabel{class_u_i_controller_aabd0a52d656fc78b241935124a3a752a}{{5.36}{67}}
\newlabel{class_u_i_controller_aa2352c73e2ae36a60e39eef505f9fcbb}{{5.36}{67}}
\newlabel{class_u_i_controller_a0936955786552efc2c01e26fa6f84a86}{{5.36}{67}}
\newlabel{class_u_i_controller_a127a2487de7620df528b91763f5b52fd}{{5.36}{68}}
\newlabel{class_u_i_controller_ad01311cf2bfbe48ac23297a734ed694a}{{5.36}{68}}
\newlabel{class_u_i_controller_a283223670c2d8beb94f94a5fd4c83ae0}{{5.36}{68}}
\newlabel{class_u_i_controller_af7d9263df5898d56a71311bfef0cf097}{{5.36}{68}}
\newlabel{class_u_i_controller_ab2c4238345cc049e82e01de7694ee5a5}{{5.36}{68}}
\newlabel{class_u_i_controller_acdad8b85495e79fc842c54c8a1b84550}{{5.36}{68}}
\newlabel{class_u_i_controller_a4c966a4d8005c3c2bbedd7ac534c89de}{{5.36}{68}}
\newlabel{class_u_i_controller_a67b5188f84e5ac2fa18eaad4a27140d5}{{5.36}{68}}
\newlabel{class_u_i_controller_a4df342e46cede93752a323ba8584102d}{{5.36}{68}}
\newlabel{class_u_i_controller_a6511b11037468342a2d10e4a811d2099}{{5.36}{68}}
\newlabel{class_u_i_controller_a454dec2388116de7f0dda23e8d2c1a00}{{5.36}{68}}
\newlabel{class_u_i_controller_a9fae6d3f2489029926d456f62cb4c740}{{5.36}{68}}
\newlabel{class_u_i_controller_a1dcf734695fb83eed2ce37c7fc95a31b}{{5.36}{68}}
\newlabel{class_u_i_controller_a45512d17eae24fe25db26ffb02ca2a29}{{5.36}{68}}
\newlabel{class_u_i_controller_ae568f42dea9ba3ea4f6a4e696073bd68}{{5.36}{68}}
\newlabel{class_u_i_controller_ac262813073ebddd0cd67b06b6f121ebb}{{5.36}{68}}
\newlabel{class_u_i_controller_a8dd1079e376225f840b7bab3eda248d3}{{5.36}{68}}
\newlabel{class_u_i_controller_a0ef56239b897b6822b2868f028a6972d}{{5.36}{68}}
\newlabel{class_u_i_controller_aabe5beea3bc21a0b58df33b309549c04}{{5.36}{68}}
\newlabel{class_u_i_controller_a3e19cdb848198c4c83155970750e37b4}{{5.36}{68}}
\newlabel{class_u_i_controller_a821b53236d6cf4411f4c95354a08da51}{{5.36}{68}}
\newlabel{class_u_i_controller_ae722d48a5a0324fce6536190fb7c8b2d}{{5.36}{68}}
\newlabel{class_u_i_controller_ab478c3ae0e62ada86f0b567923dfcc98}{{5.36}{68}}
\newlabel{class_u_i_controller_af4ef156636ef1f8f4f1d715ce9aa13b0}{{5.36}{68}}
\newlabel{class_u_i_controller_ae2dbabf1d7599b35cb6b52c644046405}{{5.36}{68}}
\newlabel{class_u_i_controller_a2bb8e40887e2b2f6a9aa02762ec1ee74}{{5.36}{68}}
\newlabel{class_u_i_controller_ac3c26dbcb5f76fea08fe317d63984241}{{5.36}{68}}
\newlabel{class_u_i_controller_adc05ca2087eacd803a4aeb09125119a3}{{5.36}{68}}
\newlabel{class_u_i_controller_a75e53de6fdde8141d356814a889ba432}{{5.36}{68}}
\newlabel{class_u_i_controller_a048f783a2968235095cef0d7c7535e06}{{5.36}{68}}
\newlabel{class_u_i_controller_ac390337ede6b326cf234673a91c7cc24}{{5.36}{68}}
\newlabel{class_u_i_controller_ac8d3120772faec3655b39e30ae9cf7c6}{{5.36}{68}}
\newlabel{class_u_i_controller_ac033fb5ff676d6c73d95822896b64dc2}{{5.36}{68}}
\@writefile{toc}{\contentsline {subsection}{\numberline {5.36.1}Detailed Description}{68}}
\gdef \LT@xlix {\LT@entry 
    {3}{71.3169pt}\LT@entry 
    {3}{103.30731pt}}
\@writefile{toc}{\contentsline {subsection}{\numberline {5.36.2}Member Function Documentation}{69}}
\newlabel{class_u_i_controller_a749e583c26a3a4405c6feddf1c13c256}{{5.36.2}{69}}
\@writefile{toc}{\contentsline {subsubsection}{\numberline {5.36.2.1}add\discretionary {\unhbox \voidb@x \hbox {\relax \fontsize  {7}{8}\selectfont  $\leftarrow \joinrel  \rhook $}}{}{}Grid\discretionary {\unhbox \voidb@x \hbox {\relax \fontsize  {7}{8}\selectfont  $\leftarrow \joinrel  \rhook $}}{}{}Layout()}{69}}
\newlabel{class_u_i_controller_ab9e6f5811c34d7adb38f3f64274e946f}{{5.36.2.1}{69}}
\gdef \LT@l {\LT@entry 
    {3}{77.31978pt}\LT@entry 
    {3}{109.0399pt}}
\gdef \LT@li {\LT@entry 
    {3}{46.81032pt}\LT@entry 
    {3}{66.92087pt}}
\@writefile{toc}{\contentsline {subsubsection}{\numberline {5.36.2.2}add\discretionary {\unhbox \voidb@x \hbox {\relax \fontsize  {7}{8}\selectfont  $\leftarrow \joinrel  \rhook $}}{}{}Imageto\discretionary {\unhbox \voidb@x \hbox {\relax \fontsize  {7}{8}\selectfont  $\leftarrow \joinrel  \rhook $}}{}{}Lab\discretionary {\unhbox \voidb@x \hbox {\relax \fontsize  {7}{8}\selectfont  $\leftarrow \joinrel  \rhook $}}{}{}Manual()}{70}}
\newlabel{class_u_i_controller_a8696aef20c5a2e5b580587950e46479e}{{5.36.2.2}{70}}
\@writefile{toc}{\contentsline {subsubsection}{\numberline {5.36.2.3}add\discretionary {\unhbox \voidb@x \hbox {\relax \fontsize  {7}{8}\selectfont  $\leftarrow \joinrel  \rhook $}}{}{}Scroll\discretionary {\unhbox \voidb@x \hbox {\relax \fontsize  {7}{8}\selectfont  $\leftarrow \joinrel  \rhook $}}{}{}Bar()}{70}}
\gdef \LT@lii {\LT@entry 
    {3}{68.63516pt}\LT@entry 
    {3}{164.08257pt}}
\newlabel{class_u_i_controller_ad5cb2cf2f312e089dbfb6e06a4d4d6b2}{{5.36.2.3}{72}}
\@writefile{toc}{\contentsline {subsubsection}{\numberline {5.36.2.4}add\discretionary {\unhbox \voidb@x \hbox {\relax \fontsize  {7}{8}\selectfont  $\leftarrow \joinrel  \rhook $}}{}{}Simple\discretionary {\unhbox \voidb@x \hbox {\relax \fontsize  {7}{8}\selectfont  $\leftarrow \joinrel  \rhook $}}{}{}Number\discretionary {\unhbox \voidb@x \hbox {\relax \fontsize  {7}{8}\selectfont  $\leftarrow \joinrel  \rhook $}}{}{}Counter()}{72}}
\newlabel{class_u_i_controller_ae07666cc0e7e6436439ab3e98966f644}{{5.36.2.4}{74}}
\@writefile{toc}{\contentsline {subsubsection}{\numberline {5.36.2.5}add\discretionary {\unhbox \voidb@x \hbox {\relax \fontsize  {7}{8}\selectfont  $\leftarrow \joinrel  \rhook $}}{}{}Text\discretionary {\unhbox \voidb@x \hbox {\relax \fontsize  {7}{8}\selectfont  $\leftarrow \joinrel  \rhook $}}{}{}To\discretionary {\unhbox \voidb@x \hbox {\relax \fontsize  {7}{8}\selectfont  $\leftarrow \joinrel  \rhook $}}{}{}Lab\discretionary {\unhbox \voidb@x \hbox {\relax \fontsize  {7}{8}\selectfont  $\leftarrow \joinrel  \rhook $}}{}{}Manual()}{74}}
\gdef \LT@liii {\LT@entry 
    {3}{57.94312pt}\LT@entry 
    {3}{130.99928pt}}
\newlabel{class_u_i_controller_a51bde7d21bc725a31371b0f9887e5e2c}{{5.36.2.5}{75}}
\gdef \LT@liv {\LT@entry 
    {3}{62.64995pt}\LT@entry 
    {3}{136.69635pt}}
\@writefile{toc}{\contentsline {subsubsection}{\numberline {5.36.2.6}create\discretionary {\unhbox \voidb@x \hbox {\relax \fontsize  {7}{8}\selectfont  $\leftarrow \joinrel  \rhook $}}{}{}Button\discretionary {\unhbox \voidb@x \hbox {\relax \fontsize  {7}{8}\selectfont  $\leftarrow \joinrel  \rhook $}}{}{}With\discretionary {\unhbox \voidb@x \hbox {\relax \fontsize  {7}{8}\selectfont  $\leftarrow \joinrel  \rhook $}}{}{}Icon()}{76}}
\newlabel{class_u_i_controller_ac6661d66b9fc37618cf93f6daf3d3afd}{{5.36.2.6}{76}}
\@writefile{toc}{\contentsline {subsubsection}{\numberline {5.36.2.7}create\discretionary {\unhbox \voidb@x \hbox {\relax \fontsize  {7}{8}\selectfont  $\leftarrow \joinrel  \rhook $}}{}{}Equipment\discretionary {\unhbox \voidb@x \hbox {\relax \fontsize  {7}{8}\selectfont  $\leftarrow \joinrel  \rhook $}}{}{}Menu()}{76}}
\gdef \LT@lv {\LT@entry 
    {3}{24.80576pt}\LT@entry 
    {3}{56.92207pt}}
\newlabel{class_u_i_controller_ac9e2f96f19b95ab1308083ca7574afd4}{{5.36.2.7}{77}}
\@writefile{toc}{\contentsline {subsubsection}{\numberline {5.36.2.8}create\discretionary {\unhbox \voidb@x \hbox {\relax \fontsize  {7}{8}\selectfont  $\leftarrow \joinrel  \rhook $}}{}{}Input\discretionary {\unhbox \voidb@x \hbox {\relax \fontsize  {7}{8}\selectfont  $\leftarrow \joinrel  \rhook $}}{}{}Field()}{77}}
\gdef \LT@lvi {\LT@entry 
    {3}{76.96898pt}\LT@entry 
    {3}{98.6722pt}}
\newlabel{class_u_i_controller_a61d076cc5ff136259e6cc678951e3bf7}{{5.36.2.8}{78}}
\gdef \LT@lvii {\LT@entry 
    {3}{66.67323pt}\LT@entry 
    {3}{95.75632pt}}
\@writefile{toc}{\contentsline {subsubsection}{\numberline {5.36.2.9}create\discretionary {\unhbox \voidb@x \hbox {\relax \fontsize  {7}{8}\selectfont  $\leftarrow \joinrel  \rhook $}}{}{}Panel()}{79}}
\gdef \LT@lviii {\LT@entry 
    {3}{66.67323pt}\LT@entry 
    {3}{95.75632pt}}
\newlabel{class_u_i_controller_ab8009db4ac764c5a2dea6cd14a834715}{{5.36.2.9}{81}}
\@writefile{toc}{\contentsline {subsubsection}{\numberline {5.36.2.10}create\discretionary {\unhbox \voidb@x \hbox {\relax \fontsize  {7}{8}\selectfont  $\leftarrow \joinrel  \rhook $}}{}{}Scroll\discretionary {\unhbox \voidb@x \hbox {\relax \fontsize  {7}{8}\selectfont  $\leftarrow \joinrel  \rhook $}}{}{}Panel()}{81}}
\newlabel{class_u_i_controller_ac41920286184fd045bbfd2f61b17e1fe}{{5.36.2.10}{81}}
\gdef \LT@lix {\LT@entry 
    {3}{68.63516pt}\LT@entry 
    {3}{164.08257pt}}
\@writefile{toc}{\contentsline {subsubsection}{\numberline {5.36.2.11}create\discretionary {\unhbox \voidb@x \hbox {\relax \fontsize  {7}{8}\selectfont  $\leftarrow \joinrel  \rhook $}}{}{}Simple\discretionary {\unhbox \voidb@x \hbox {\relax \fontsize  {7}{8}\selectfont  $\leftarrow \joinrel  \rhook $}}{}{}Number\discretionary {\unhbox \voidb@x \hbox {\relax \fontsize  {7}{8}\selectfont  $\leftarrow \joinrel  \rhook $}}{}{}Counter\discretionary {\unhbox \voidb@x \hbox {\relax \fontsize  {7}{8}\selectfont  $\leftarrow \joinrel  \rhook $}}{}{}Panel()}{82}}
\newlabel{class_u_i_controller_a94e97e79f04c3c20ade27317cc200f6d}{{5.36.2.11}{82}}
\@writefile{toc}{\contentsline {subsubsection}{\numberline {5.36.2.12}create\discretionary {\unhbox \voidb@x \hbox {\relax \fontsize  {7}{8}\selectfont  $\leftarrow \joinrel  \rhook $}}{}{}Tooltip()}{82}}
\gdef \LT@lx {\LT@entry 
    {3}{34.81357pt}\LT@entry 
    {3}{54.92412pt}}
\newlabel{class_u_i_controller_acd8f82b1e219f852574fd8bb7a613453}{{5.36.2.12}{83}}
\@writefile{toc}{\contentsline {subsubsection}{\numberline {5.36.2.13}get\discretionary {\unhbox \voidb@x \hbox {\relax \fontsize  {7}{8}\selectfont  $\leftarrow \joinrel  \rhook $}}{}{}Canvas()}{83}}
\newlabel{class_u_i_controller_af3aef3120117bd67aa8d18c149777d2e}{{5.36.2.13}{83}}
\@writefile{toc}{\contentsline {subsubsection}{\numberline {5.36.2.14}get\discretionary {\unhbox \voidb@x \hbox {\relax \fontsize  {7}{8}\selectfont  $\leftarrow \joinrel  \rhook $}}{}{}Content\discretionary {\unhbox \voidb@x \hbox {\relax \fontsize  {7}{8}\selectfont  $\leftarrow \joinrel  \rhook $}}{}{}Area\discretionary {\unhbox \voidb@x \hbox {\relax \fontsize  {7}{8}\selectfont  $\leftarrow \joinrel  \rhook $}}{}{}Game\discretionary {\unhbox \voidb@x \hbox {\relax \fontsize  {7}{8}\selectfont  $\leftarrow \joinrel  \rhook $}}{}{}Object()}{83}}
\newlabel{class_u_i_controller_a3db68c8c3c6adb54581a98bddc593393}{{5.36.2.14}{83}}
\gdef \LT@lxi {\LT@entry 
    {3}{24.80576pt}\LT@entry 
    {3}{56.92207pt}}
\@writefile{toc}{\contentsline {subsubsection}{\numberline {5.36.2.15}get\discretionary {\unhbox \voidb@x \hbox {\relax \fontsize  {7}{8}\selectfont  $\leftarrow \joinrel  \rhook $}}{}{}Mouse\discretionary {\unhbox \voidb@x \hbox {\relax \fontsize  {7}{8}\selectfont  $\leftarrow \joinrel  \rhook $}}{}{}Screen\discretionary {\unhbox \voidb@x \hbox {\relax \fontsize  {7}{8}\selectfont  $\leftarrow \joinrel  \rhook $}}{}{}Pos()}{84}}
\newlabel{class_u_i_controller_ada270c8ac33b9086b81fd8a79257d069}{{5.36.2.15}{84}}
\@writefile{toc}{\contentsline {subsubsection}{\numberline {5.36.2.16}get\discretionary {\unhbox \voidb@x \hbox {\relax \fontsize  {7}{8}\selectfont  $\leftarrow \joinrel  \rhook $}}{}{}U\discretionary {\unhbox \voidb@x \hbox {\relax \fontsize  {7}{8}\selectfont  $\leftarrow \joinrel  \rhook $}}{}{}I\discretionary {\unhbox \voidb@x \hbox {\relax \fontsize  {7}{8}\selectfont  $\leftarrow \joinrel  \rhook $}}{}{}Controller()}{84}}
\@writefile{toc}{\contentsline {section}{\numberline {5.37}Utils Class Reference}{84}}
\newlabel{class_utils}{{5.37}{84}}
\gdef \LT@lxii {\LT@entry 
    {3}{56.32309pt}\LT@entry 
    {3}{87.53036pt}}
\@writefile{toc}{\contentsline {subsection}{\numberline {5.37.1}Detailed Description}{85}}
\@writefile{toc}{\contentsline {subsection}{\numberline {5.37.2}Member Function Documentation}{85}}
\newlabel{class_utils_a4cd1c09dc8be95ec6ab37649860765e6}{{5.37.2}{85}}
\@writefile{toc}{\contentsline {subsubsection}{\numberline {5.37.2.1}Copy\discretionary {\unhbox \voidb@x \hbox {\relax \fontsize  {7}{8}\selectfont  $\leftarrow \joinrel  \rhook $}}{}{}Component()}{85}}
\newlabel{class_utils_a5a8154803e78c52d349ed9068887be46}{{5.37.2.1}{85}}
\@writefile{toc}{\contentsline {subsubsection}{\numberline {5.37.2.2}get\discretionary {\unhbox \voidb@x \hbox {\relax \fontsize  {7}{8}\selectfont  $\leftarrow \joinrel  \rhook $}}{}{}Child\discretionary {\unhbox \voidb@x \hbox {\relax \fontsize  {7}{8}\selectfont  $\leftarrow \joinrel  \rhook $}}{}{}Game\discretionary {\unhbox \voidb@x \hbox {\relax \fontsize  {7}{8}\selectfont  $\leftarrow \joinrel  \rhook $}}{}{}Object()}{85}}
\gdef \LT@lxiii {\LT@entry 
    {3}{46.12654pt}\LT@entry 
    {3}{74.84961pt}}
\@writefile{toc}{\contentsline {section}{\numberline {5.38}Water Class Reference}{86}}
\newlabel{class_water}{{5.38}{86}}
\newlabel{class_water_a67224d42d2ac53cc981252a47f99554b}{{5.38}{86}}
\newlabel{class_water_a4514f81ce5d3ec0deb45c38a7f8e07d9}{{5.38}{86}}
\newlabel{class_water_af8b1bea6aa0c0df33da2315f3d679d42}{{5.38}{86}}
\@writefile{toc}{\contentsline {subsection}{\numberline {5.38.1}Detailed Description}{86}}
\@writefile{toc}{\contentsline {subsection}{\numberline {5.38.2}Member Function Documentation}{86}}
\newlabel{class_water_af2bee0dd0212709e570388dc9768dbad}{{5.38.2}{86}}
\@writefile{toc}{\contentsline {subsubsection}{\numberline {5.38.2.1}add\discretionary {\unhbox \voidb@x \hbox {\relax \fontsize  {7}{8}\selectfont  $\leftarrow \joinrel  \rhook $}}{}{}To\discretionary {\unhbox \voidb@x \hbox {\relax \fontsize  {7}{8}\selectfont  $\leftarrow \joinrel  \rhook $}}{}{}Game\discretionary {\unhbox \voidb@x \hbox {\relax \fontsize  {7}{8}\selectfont  $\leftarrow \joinrel  \rhook $}}{}{}Object()}{86}}
\gdef \LT@lxiv {\LT@entry 
    {3}{105.33624pt}\LT@entry 
    {3}{126.45467pt}}
\gdef \LT@lxv {\LT@entry 
    {3}{42.8144pt}\LT@entry 
    {3}{62.92496pt}}
\newlabel{class_water_ad17d89637d754e4eabfcf68d2ec0bd4e}{{5.38.2.1}{87}}
\@writefile{toc}{\contentsline {subsubsection}{\numberline {5.38.2.2}pour()}{87}}
\@writefile{toc}{\contentsline {chapter}{Index}{89}}
